%YAML 1.1
%TAG !u! tag:unity3d.com,2011:
--- !u!1 &5504759865135427640
GameObject:
  m_ObjectHideFlags: 0
  m_CorrespondingSourceObject: {fileID: 0}
  m_PrefabInstance: {fileID: 0}
  m_PrefabAsset: {fileID: 0}
  serializedVersion: 6
  m_Component:
  - component: {fileID: 8160774679043280232}
  - component: {fileID: 6251529198343415551}
  m_Layer: 0
  m_Name: Rock Tileset
  m_TagString: Untagged
  m_Icon: {fileID: 0}
  m_NavMeshLayer: 0
  m_StaticEditorFlags: 0
  m_IsActive: 1
--- !u!4 &8160774679043280232
Transform:
  m_ObjectHideFlags: 0
  m_CorrespondingSourceObject: {fileID: 0}
  m_PrefabInstance: {fileID: 0}
  m_PrefabAsset: {fileID: 0}
  m_GameObject: {fileID: 5504759865135427640}
  m_LocalRotation: {x: 0, y: 0, z: 0, w: 1}
  m_LocalPosition: {x: 0, y: 0, z: 0}
  m_LocalScale: {x: 1, y: 1, z: 1}
  m_ConstrainProportionsScale: 0
  m_Children:
  - {fileID: 373651642699513460}
  m_Father: {fileID: 0}
  m_RootOrder: 0
  m_LocalEulerAnglesHint: {x: 0, y: 0, z: 0}
--- !u!156049354 &6251529198343415551
Grid:
  m_ObjectHideFlags: 0
  m_CorrespondingSourceObject: {fileID: 0}
  m_PrefabInstance: {fileID: 0}
  m_PrefabAsset: {fileID: 0}
  m_GameObject: {fileID: 5504759865135427640}
  m_Enabled: 1
  m_CellSize: {x: 1, y: 1, z: 0}
  m_CellGap: {x: 0, y: 0, z: 0}
  m_CellLayout: 0
  m_CellSwizzle: 0
--- !u!1 &7251291970705955217
GameObject:
  m_ObjectHideFlags: 0
  m_CorrespondingSourceObject: {fileID: 0}
  m_PrefabInstance: {fileID: 0}
  m_PrefabAsset: {fileID: 0}
  serializedVersion: 6
  m_Component:
  - component: {fileID: 373651642699513460}
  - component: {fileID: 1337021587812832093}
  - component: {fileID: 2349977700611669501}
  m_Layer: 0
  m_Name: Layer1
  m_TagString: Untagged
  m_Icon: {fileID: 0}
  m_NavMeshLayer: 0
  m_StaticEditorFlags: 0
  m_IsActive: 1
--- !u!4 &373651642699513460
Transform:
  m_ObjectHideFlags: 0
  m_CorrespondingSourceObject: {fileID: 0}
  m_PrefabInstance: {fileID: 0}
  m_PrefabAsset: {fileID: 0}
  m_GameObject: {fileID: 7251291970705955217}
  m_LocalRotation: {x: -0, y: -0, z: -0, w: 1}
  m_LocalPosition: {x: 0, y: 0, z: 0}
  m_LocalScale: {x: 1, y: 1, z: 1}
  m_ConstrainProportionsScale: 0
  m_Children: []
  m_Father: {fileID: 8160774679043280232}
  m_RootOrder: 0
  m_LocalEulerAnglesHint: {x: 0, y: 0, z: 0}
--- !u!1839735485 &1337021587812832093
Tilemap:
  m_ObjectHideFlags: 0
  m_CorrespondingSourceObject: {fileID: 0}
  m_PrefabInstance: {fileID: 0}
  m_PrefabAsset: {fileID: 0}
  m_GameObject: {fileID: 7251291970705955217}
  m_Enabled: 1
  m_Tiles:
  - first: {x: -1, y: -16, z: 0}
    second:
      serializedVersion: 2
      m_TileIndex: 102
      m_TileSpriteIndex: 102
      m_TileMatrixIndex: 0
      m_TileColorIndex: 0
      m_TileObjectToInstantiateIndex: 65535
      dummyAlignment: 0
      m_AllTileFlags: 1073741825
  - first: {x: 0, y: -16, z: 0}
    second:
      serializedVersion: 2
      m_TileIndex: 103
      m_TileSpriteIndex: 103
      m_TileMatrixIndex: 0
      m_TileColorIndex: 0
      m_TileObjectToInstantiateIndex: 65535
      dummyAlignment: 0
      m_AllTileFlags: 1073741825
  - first: {x: 1, y: -16, z: 0}
    second:
      serializedVersion: 2
      m_TileIndex: 104
      m_TileSpriteIndex: 104
      m_TileMatrixIndex: 0
      m_TileColorIndex: 0
      m_TileObjectToInstantiateIndex: 65535
      dummyAlignment: 0
      m_AllTileFlags: 1073741825
  - first: {x: 2, y: -16, z: 0}
    second:
      serializedVersion: 2
      m_TileIndex: 105
      m_TileSpriteIndex: 105
      m_TileMatrixIndex: 0
      m_TileColorIndex: 0
      m_TileObjectToInstantiateIndex: 65535
      dummyAlignment: 0
      m_AllTileFlags: 1073741825
  - first: {x: 3, y: -16, z: 0}
    second:
      serializedVersion: 2
      m_TileIndex: 106
      m_TileSpriteIndex: 106
      m_TileMatrixIndex: 0
      m_TileColorIndex: 0
      m_TileObjectToInstantiateIndex: 65535
      dummyAlignment: 0
      m_AllTileFlags: 1073741825
  - first: {x: 4, y: -16, z: 0}
    second:
      serializedVersion: 2
      m_TileIndex: 107
      m_TileSpriteIndex: 107
      m_TileMatrixIndex: 0
      m_TileColorIndex: 0
      m_TileObjectToInstantiateIndex: 65535
      dummyAlignment: 0
      m_AllTileFlags: 1073741825
  - first: {x: -1, y: -15, z: 0}
    second:
      serializedVersion: 2
      m_TileIndex: 96
      m_TileSpriteIndex: 96
      m_TileMatrixIndex: 0
      m_TileColorIndex: 0
      m_TileObjectToInstantiateIndex: 65535
      dummyAlignment: 0
      m_AllTileFlags: 1073741825
  - first: {x: 0, y: -15, z: 0}
    second:
      serializedVersion: 2
      m_TileIndex: 97
      m_TileSpriteIndex: 97
      m_TileMatrixIndex: 0
      m_TileColorIndex: 0
      m_TileObjectToInstantiateIndex: 65535
      dummyAlignment: 0
      m_AllTileFlags: 1073741825
  - first: {x: 1, y: -15, z: 0}
    second:
      serializedVersion: 2
      m_TileIndex: 98
      m_TileSpriteIndex: 98
      m_TileMatrixIndex: 0
      m_TileColorIndex: 0
      m_TileObjectToInstantiateIndex: 65535
      dummyAlignment: 0
      m_AllTileFlags: 1073741825
  - first: {x: 2, y: -15, z: 0}
    second:
      serializedVersion: 2
      m_TileIndex: 99
      m_TileSpriteIndex: 99
      m_TileMatrixIndex: 0
      m_TileColorIndex: 0
      m_TileObjectToInstantiateIndex: 65535
      dummyAlignment: 0
      m_AllTileFlags: 1073741825
  - first: {x: 3, y: -15, z: 0}
    second:
      serializedVersion: 2
      m_TileIndex: 100
      m_TileSpriteIndex: 100
      m_TileMatrixIndex: 0
      m_TileColorIndex: 0
      m_TileObjectToInstantiateIndex: 65535
      dummyAlignment: 0
      m_AllTileFlags: 1073741825
  - first: {x: 4, y: -15, z: 0}
    second:
      serializedVersion: 2
      m_TileIndex: 101
      m_TileSpriteIndex: 101
      m_TileMatrixIndex: 0
      m_TileColorIndex: 0
      m_TileObjectToInstantiateIndex: 65535
      dummyAlignment: 0
      m_AllTileFlags: 1073741825
  - first: {x: -1, y: -14, z: 0}
    second:
      serializedVersion: 2
      m_TileIndex: 90
      m_TileSpriteIndex: 90
      m_TileMatrixIndex: 0
      m_TileColorIndex: 0
      m_TileObjectToInstantiateIndex: 65535
      dummyAlignment: 0
      m_AllTileFlags: 1073741825
  - first: {x: 0, y: -14, z: 0}
    second:
      serializedVersion: 2
      m_TileIndex: 91
      m_TileSpriteIndex: 91
      m_TileMatrixIndex: 0
      m_TileColorIndex: 0
      m_TileObjectToInstantiateIndex: 65535
      dummyAlignment: 0
      m_AllTileFlags: 1073741825
  - first: {x: 1, y: -14, z: 0}
    second:
      serializedVersion: 2
      m_TileIndex: 92
      m_TileSpriteIndex: 92
      m_TileMatrixIndex: 0
      m_TileColorIndex: 0
      m_TileObjectToInstantiateIndex: 65535
      dummyAlignment: 0
      m_AllTileFlags: 1073741825
  - first: {x: 2, y: -14, z: 0}
    second:
      serializedVersion: 2
      m_TileIndex: 93
      m_TileSpriteIndex: 93
      m_TileMatrixIndex: 0
      m_TileColorIndex: 0
      m_TileObjectToInstantiateIndex: 65535
      dummyAlignment: 0
      m_AllTileFlags: 1073741825
  - first: {x: 3, y: -14, z: 0}
    second:
      serializedVersion: 2
      m_TileIndex: 94
      m_TileSpriteIndex: 94
      m_TileMatrixIndex: 0
      m_TileColorIndex: 0
      m_TileObjectToInstantiateIndex: 65535
      dummyAlignment: 0
      m_AllTileFlags: 1073741825
  - first: {x: 4, y: -14, z: 0}
    second:
      serializedVersion: 2
      m_TileIndex: 95
      m_TileSpriteIndex: 95
      m_TileMatrixIndex: 0
      m_TileColorIndex: 0
      m_TileObjectToInstantiateIndex: 65535
      dummyAlignment: 0
      m_AllTileFlags: 1073741825
  - first: {x: -1, y: -13, z: 0}
    second:
      serializedVersion: 2
      m_TileIndex: 84
      m_TileSpriteIndex: 84
      m_TileMatrixIndex: 0
      m_TileColorIndex: 0
      m_TileObjectToInstantiateIndex: 65535
      dummyAlignment: 0
      m_AllTileFlags: 1073741825
  - first: {x: 0, y: -13, z: 0}
    second:
      serializedVersion: 2
      m_TileIndex: 85
      m_TileSpriteIndex: 85
      m_TileMatrixIndex: 0
      m_TileColorIndex: 0
      m_TileObjectToInstantiateIndex: 65535
      dummyAlignment: 0
      m_AllTileFlags: 1073741825
  - first: {x: 1, y: -13, z: 0}
    second:
      serializedVersion: 2
      m_TileIndex: 86
      m_TileSpriteIndex: 86
      m_TileMatrixIndex: 0
      m_TileColorIndex: 0
      m_TileObjectToInstantiateIndex: 65535
      dummyAlignment: 0
      m_AllTileFlags: 1073741825
  - first: {x: 2, y: -13, z: 0}
    second:
      serializedVersion: 2
      m_TileIndex: 87
      m_TileSpriteIndex: 87
      m_TileMatrixIndex: 0
      m_TileColorIndex: 0
      m_TileObjectToInstantiateIndex: 65535
      dummyAlignment: 0
      m_AllTileFlags: 1073741825
  - first: {x: 3, y: -13, z: 0}
    second:
      serializedVersion: 2
      m_TileIndex: 88
      m_TileSpriteIndex: 88
      m_TileMatrixIndex: 0
      m_TileColorIndex: 0
      m_TileObjectToInstantiateIndex: 65535
      dummyAlignment: 0
      m_AllTileFlags: 1073741825
  - first: {x: 4, y: -13, z: 0}
    second:
      serializedVersion: 2
      m_TileIndex: 89
      m_TileSpriteIndex: 89
      m_TileMatrixIndex: 0
      m_TileColorIndex: 0
      m_TileObjectToInstantiateIndex: 65535
      dummyAlignment: 0
      m_AllTileFlags: 1073741825
  - first: {x: -1, y: -12, z: 0}
    second:
      serializedVersion: 2
      m_TileIndex: 78
      m_TileSpriteIndex: 78
      m_TileMatrixIndex: 0
      m_TileColorIndex: 0
      m_TileObjectToInstantiateIndex: 65535
      dummyAlignment: 0
      m_AllTileFlags: 1073741825
  - first: {x: 0, y: -12, z: 0}
    second:
      serializedVersion: 2
      m_TileIndex: 79
      m_TileSpriteIndex: 79
      m_TileMatrixIndex: 0
      m_TileColorIndex: 0
      m_TileObjectToInstantiateIndex: 65535
      dummyAlignment: 0
      m_AllTileFlags: 1073741825
  - first: {x: 1, y: -12, z: 0}
    second:
      serializedVersion: 2
      m_TileIndex: 80
      m_TileSpriteIndex: 80
      m_TileMatrixIndex: 0
      m_TileColorIndex: 0
      m_TileObjectToInstantiateIndex: 65535
      dummyAlignment: 0
      m_AllTileFlags: 1073741825
  - first: {x: 2, y: -12, z: 0}
    second:
      serializedVersion: 2
      m_TileIndex: 81
      m_TileSpriteIndex: 81
      m_TileMatrixIndex: 0
      m_TileColorIndex: 0
      m_TileObjectToInstantiateIndex: 65535
      dummyAlignment: 0
      m_AllTileFlags: 1073741825
  - first: {x: 3, y: -12, z: 0}
    second:
      serializedVersion: 2
      m_TileIndex: 82
      m_TileSpriteIndex: 82
      m_TileMatrixIndex: 0
      m_TileColorIndex: 0
      m_TileObjectToInstantiateIndex: 65535
      dummyAlignment: 0
      m_AllTileFlags: 1073741825
  - first: {x: 4, y: -12, z: 0}
    second:
      serializedVersion: 2
      m_TileIndex: 83
      m_TileSpriteIndex: 83
      m_TileMatrixIndex: 0
      m_TileColorIndex: 0
      m_TileObjectToInstantiateIndex: 65535
      dummyAlignment: 0
      m_AllTileFlags: 1073741825
  - first: {x: -1, y: -11, z: 0}
    second:
      serializedVersion: 2
      m_TileIndex: 72
      m_TileSpriteIndex: 72
      m_TileMatrixIndex: 0
      m_TileColorIndex: 0
      m_TileObjectToInstantiateIndex: 65535
      dummyAlignment: 0
      m_AllTileFlags: 1073741825
  - first: {x: 0, y: -11, z: 0}
    second:
      serializedVersion: 2
      m_TileIndex: 73
      m_TileSpriteIndex: 73
      m_TileMatrixIndex: 0
      m_TileColorIndex: 0
      m_TileObjectToInstantiateIndex: 65535
      dummyAlignment: 0
      m_AllTileFlags: 1073741825
  - first: {x: 1, y: -11, z: 0}
    second:
      serializedVersion: 2
      m_TileIndex: 74
      m_TileSpriteIndex: 74
      m_TileMatrixIndex: 0
      m_TileColorIndex: 0
      m_TileObjectToInstantiateIndex: 65535
      dummyAlignment: 0
      m_AllTileFlags: 1073741825
  - first: {x: 2, y: -11, z: 0}
    second:
      serializedVersion: 2
      m_TileIndex: 75
      m_TileSpriteIndex: 75
      m_TileMatrixIndex: 0
      m_TileColorIndex: 0
      m_TileObjectToInstantiateIndex: 65535
      dummyAlignment: 0
      m_AllTileFlags: 1073741825
  - first: {x: 3, y: -11, z: 0}
    second:
      serializedVersion: 2
      m_TileIndex: 76
      m_TileSpriteIndex: 76
      m_TileMatrixIndex: 0
      m_TileColorIndex: 0
      m_TileObjectToInstantiateIndex: 65535
      dummyAlignment: 0
      m_AllTileFlags: 1073741825
  - first: {x: 4, y: -11, z: 0}
    second:
      serializedVersion: 2
      m_TileIndex: 77
      m_TileSpriteIndex: 77
      m_TileMatrixIndex: 0
      m_TileColorIndex: 0
      m_TileObjectToInstantiateIndex: 65535
      dummyAlignment: 0
      m_AllTileFlags: 1073741825
  - first: {x: -1, y: -10, z: 0}
    second:
      serializedVersion: 2
      m_TileIndex: 66
      m_TileSpriteIndex: 66
      m_TileMatrixIndex: 0
      m_TileColorIndex: 0
      m_TileObjectToInstantiateIndex: 65535
      dummyAlignment: 0
      m_AllTileFlags: 1073741825
  - first: {x: 0, y: -10, z: 0}
    second:
      serializedVersion: 2
      m_TileIndex: 67
      m_TileSpriteIndex: 67
      m_TileMatrixIndex: 0
      m_TileColorIndex: 0
      m_TileObjectToInstantiateIndex: 65535
      dummyAlignment: 0
      m_AllTileFlags: 1073741825
  - first: {x: 1, y: -10, z: 0}
    second:
      serializedVersion: 2
      m_TileIndex: 68
      m_TileSpriteIndex: 68
      m_TileMatrixIndex: 0
      m_TileColorIndex: 0
      m_TileObjectToInstantiateIndex: 65535
      dummyAlignment: 0
      m_AllTileFlags: 1073741825
  - first: {x: 2, y: -10, z: 0}
    second:
      serializedVersion: 2
      m_TileIndex: 69
      m_TileSpriteIndex: 69
      m_TileMatrixIndex: 0
      m_TileColorIndex: 0
      m_TileObjectToInstantiateIndex: 65535
      dummyAlignment: 0
      m_AllTileFlags: 1073741825
  - first: {x: 3, y: -10, z: 0}
    second:
      serializedVersion: 2
      m_TileIndex: 70
      m_TileSpriteIndex: 70
      m_TileMatrixIndex: 0
      m_TileColorIndex: 0
      m_TileObjectToInstantiateIndex: 65535
      dummyAlignment: 0
      m_AllTileFlags: 1073741825
  - first: {x: 4, y: -10, z: 0}
    second:
      serializedVersion: 2
      m_TileIndex: 71
      m_TileSpriteIndex: 71
      m_TileMatrixIndex: 0
      m_TileColorIndex: 0
      m_TileObjectToInstantiateIndex: 65535
      dummyAlignment: 0
      m_AllTileFlags: 1073741825
  - first: {x: -1, y: -9, z: 0}
    second:
      serializedVersion: 2
      m_TileIndex: 60
      m_TileSpriteIndex: 60
      m_TileMatrixIndex: 0
      m_TileColorIndex: 0
      m_TileObjectToInstantiateIndex: 65535
      dummyAlignment: 0
      m_AllTileFlags: 1073741825
  - first: {x: 0, y: -9, z: 0}
    second:
      serializedVersion: 2
      m_TileIndex: 61
      m_TileSpriteIndex: 61
      m_TileMatrixIndex: 0
      m_TileColorIndex: 0
      m_TileObjectToInstantiateIndex: 65535
      dummyAlignment: 0
      m_AllTileFlags: 1073741825
  - first: {x: 1, y: -9, z: 0}
    second:
      serializedVersion: 2
      m_TileIndex: 62
      m_TileSpriteIndex: 62
      m_TileMatrixIndex: 0
      m_TileColorIndex: 0
      m_TileObjectToInstantiateIndex: 65535
      dummyAlignment: 0
      m_AllTileFlags: 1073741825
  - first: {x: 2, y: -9, z: 0}
    second:
      serializedVersion: 2
      m_TileIndex: 63
      m_TileSpriteIndex: 63
      m_TileMatrixIndex: 0
      m_TileColorIndex: 0
      m_TileObjectToInstantiateIndex: 65535
      dummyAlignment: 0
      m_AllTileFlags: 1073741825
  - first: {x: 3, y: -9, z: 0}
    second:
      serializedVersion: 2
      m_TileIndex: 64
      m_TileSpriteIndex: 64
      m_TileMatrixIndex: 0
      m_TileColorIndex: 0
      m_TileObjectToInstantiateIndex: 65535
      dummyAlignment: 0
      m_AllTileFlags: 1073741825
  - first: {x: 4, y: -9, z: 0}
    second:
      serializedVersion: 2
      m_TileIndex: 65
      m_TileSpriteIndex: 65
      m_TileMatrixIndex: 0
      m_TileColorIndex: 0
      m_TileObjectToInstantiateIndex: 65535
      dummyAlignment: 0
      m_AllTileFlags: 1073741825
  - first: {x: -1, y: -8, z: 0}
    second:
      serializedVersion: 2
      m_TileIndex: 54
      m_TileSpriteIndex: 54
      m_TileMatrixIndex: 0
      m_TileColorIndex: 0
      m_TileObjectToInstantiateIndex: 65535
      dummyAlignment: 0
      m_AllTileFlags: 1073741825
  - first: {x: 0, y: -8, z: 0}
    second:
      serializedVersion: 2
      m_TileIndex: 55
      m_TileSpriteIndex: 55
      m_TileMatrixIndex: 0
      m_TileColorIndex: 0
      m_TileObjectToInstantiateIndex: 65535
      dummyAlignment: 0
      m_AllTileFlags: 1073741825
  - first: {x: 1, y: -8, z: 0}
    second:
      serializedVersion: 2
      m_TileIndex: 56
      m_TileSpriteIndex: 56
      m_TileMatrixIndex: 0
      m_TileColorIndex: 0
      m_TileObjectToInstantiateIndex: 65535
      dummyAlignment: 0
      m_AllTileFlags: 1073741825
  - first: {x: 2, y: -8, z: 0}
    second:
      serializedVersion: 2
      m_TileIndex: 57
      m_TileSpriteIndex: 57
      m_TileMatrixIndex: 0
      m_TileColorIndex: 0
      m_TileObjectToInstantiateIndex: 65535
      dummyAlignment: 0
      m_AllTileFlags: 1073741825
  - first: {x: 3, y: -8, z: 0}
    second:
      serializedVersion: 2
      m_TileIndex: 58
      m_TileSpriteIndex: 58
      m_TileMatrixIndex: 0
      m_TileColorIndex: 0
      m_TileObjectToInstantiateIndex: 65535
      dummyAlignment: 0
      m_AllTileFlags: 1073741825
  - first: {x: 4, y: -8, z: 0}
    second:
      serializedVersion: 2
      m_TileIndex: 59
      m_TileSpriteIndex: 59
      m_TileMatrixIndex: 0
      m_TileColorIndex: 0
      m_TileObjectToInstantiateIndex: 65535
      dummyAlignment: 0
      m_AllTileFlags: 1073741825
  - first: {x: -1, y: -7, z: 0}
    second:
      serializedVersion: 2
      m_TileIndex: 48
      m_TileSpriteIndex: 48
      m_TileMatrixIndex: 0
      m_TileColorIndex: 0
      m_TileObjectToInstantiateIndex: 65535
      dummyAlignment: 0
      m_AllTileFlags: 1073741825
  - first: {x: 0, y: -7, z: 0}
    second:
      serializedVersion: 2
      m_TileIndex: 49
      m_TileSpriteIndex: 49
      m_TileMatrixIndex: 0
      m_TileColorIndex: 0
      m_TileObjectToInstantiateIndex: 65535
      dummyAlignment: 0
      m_AllTileFlags: 1073741825
  - first: {x: 1, y: -7, z: 0}
    second:
      serializedVersion: 2
      m_TileIndex: 50
      m_TileSpriteIndex: 50
      m_TileMatrixIndex: 0
      m_TileColorIndex: 0
      m_TileObjectToInstantiateIndex: 65535
      dummyAlignment: 0
      m_AllTileFlags: 1073741825
  - first: {x: 2, y: -7, z: 0}
    second:
      serializedVersion: 2
      m_TileIndex: 51
      m_TileSpriteIndex: 51
      m_TileMatrixIndex: 0
      m_TileColorIndex: 0
      m_TileObjectToInstantiateIndex: 65535
      dummyAlignment: 0
      m_AllTileFlags: 1073741825
  - first: {x: 3, y: -7, z: 0}
    second:
      serializedVersion: 2
      m_TileIndex: 52
      m_TileSpriteIndex: 52
      m_TileMatrixIndex: 0
      m_TileColorIndex: 0
      m_TileObjectToInstantiateIndex: 65535
      dummyAlignment: 0
      m_AllTileFlags: 1073741825
  - first: {x: 4, y: -7, z: 0}
    second:
      serializedVersion: 2
      m_TileIndex: 53
      m_TileSpriteIndex: 53
      m_TileMatrixIndex: 0
      m_TileColorIndex: 0
      m_TileObjectToInstantiateIndex: 65535
      dummyAlignment: 0
      m_AllTileFlags: 1073741825
  - first: {x: -1, y: -6, z: 0}
    second:
      serializedVersion: 2
      m_TileIndex: 42
      m_TileSpriteIndex: 42
      m_TileMatrixIndex: 0
      m_TileColorIndex: 0
      m_TileObjectToInstantiateIndex: 65535
      dummyAlignment: 0
      m_AllTileFlags: 1073741825
  - first: {x: 0, y: -6, z: 0}
    second:
      serializedVersion: 2
      m_TileIndex: 43
      m_TileSpriteIndex: 43
      m_TileMatrixIndex: 0
      m_TileColorIndex: 0
      m_TileObjectToInstantiateIndex: 65535
      dummyAlignment: 0
      m_AllTileFlags: 1073741825
  - first: {x: 1, y: -6, z: 0}
    second:
      serializedVersion: 2
      m_TileIndex: 44
      m_TileSpriteIndex: 44
      m_TileMatrixIndex: 0
      m_TileColorIndex: 0
      m_TileObjectToInstantiateIndex: 65535
      dummyAlignment: 0
      m_AllTileFlags: 1073741825
  - first: {x: 2, y: -6, z: 0}
    second:
      serializedVersion: 2
      m_TileIndex: 45
      m_TileSpriteIndex: 45
      m_TileMatrixIndex: 0
      m_TileColorIndex: 0
      m_TileObjectToInstantiateIndex: 65535
      dummyAlignment: 0
      m_AllTileFlags: 1073741825
  - first: {x: 3, y: -6, z: 0}
    second:
      serializedVersion: 2
      m_TileIndex: 46
      m_TileSpriteIndex: 46
      m_TileMatrixIndex: 0
      m_TileColorIndex: 0
      m_TileObjectToInstantiateIndex: 65535
      dummyAlignment: 0
      m_AllTileFlags: 1073741825
  - first: {x: 4, y: -6, z: 0}
    second:
      serializedVersion: 2
      m_TileIndex: 47
      m_TileSpriteIndex: 47
      m_TileMatrixIndex: 0
      m_TileColorIndex: 0
      m_TileObjectToInstantiateIndex: 65535
      dummyAlignment: 0
      m_AllTileFlags: 1073741825
  - first: {x: -1, y: -5, z: 0}
    second:
      serializedVersion: 2
      m_TileIndex: 36
      m_TileSpriteIndex: 36
      m_TileMatrixIndex: 0
      m_TileColorIndex: 0
      m_TileObjectToInstantiateIndex: 65535
      dummyAlignment: 0
      m_AllTileFlags: 1073741825
  - first: {x: 0, y: -5, z: 0}
    second:
      serializedVersion: 2
      m_TileIndex: 37
      m_TileSpriteIndex: 37
      m_TileMatrixIndex: 0
      m_TileColorIndex: 0
      m_TileObjectToInstantiateIndex: 65535
      dummyAlignment: 0
      m_AllTileFlags: 1073741825
  - first: {x: 1, y: -5, z: 0}
    second:
      serializedVersion: 2
      m_TileIndex: 38
      m_TileSpriteIndex: 38
      m_TileMatrixIndex: 0
      m_TileColorIndex: 0
      m_TileObjectToInstantiateIndex: 65535
      dummyAlignment: 0
      m_AllTileFlags: 1073741825
  - first: {x: 2, y: -5, z: 0}
    second:
      serializedVersion: 2
      m_TileIndex: 39
      m_TileSpriteIndex: 39
      m_TileMatrixIndex: 0
      m_TileColorIndex: 0
      m_TileObjectToInstantiateIndex: 65535
      dummyAlignment: 0
      m_AllTileFlags: 1073741825
  - first: {x: 3, y: -5, z: 0}
    second:
      serializedVersion: 2
      m_TileIndex: 40
      m_TileSpriteIndex: 40
      m_TileMatrixIndex: 0
      m_TileColorIndex: 0
      m_TileObjectToInstantiateIndex: 65535
      dummyAlignment: 0
      m_AllTileFlags: 1073741825
  - first: {x: 4, y: -5, z: 0}
    second:
      serializedVersion: 2
      m_TileIndex: 41
      m_TileSpriteIndex: 41
      m_TileMatrixIndex: 0
      m_TileColorIndex: 0
      m_TileObjectToInstantiateIndex: 65535
      dummyAlignment: 0
      m_AllTileFlags: 1073741825
  - first: {x: -1, y: -4, z: 0}
    second:
      serializedVersion: 2
      m_TileIndex: 30
      m_TileSpriteIndex: 30
      m_TileMatrixIndex: 0
      m_TileColorIndex: 0
      m_TileObjectToInstantiateIndex: 65535
      dummyAlignment: 0
      m_AllTileFlags: 1073741825
  - first: {x: 0, y: -4, z: 0}
    second:
      serializedVersion: 2
      m_TileIndex: 31
      m_TileSpriteIndex: 31
      m_TileMatrixIndex: 0
      m_TileColorIndex: 0
      m_TileObjectToInstantiateIndex: 65535
      dummyAlignment: 0
      m_AllTileFlags: 1073741825
  - first: {x: 1, y: -4, z: 0}
    second:
      serializedVersion: 2
      m_TileIndex: 32
      m_TileSpriteIndex: 32
      m_TileMatrixIndex: 0
      m_TileColorIndex: 0
      m_TileObjectToInstantiateIndex: 65535
      dummyAlignment: 0
      m_AllTileFlags: 1073741825
  - first: {x: 2, y: -4, z: 0}
    second:
      serializedVersion: 2
      m_TileIndex: 33
      m_TileSpriteIndex: 33
      m_TileMatrixIndex: 0
      m_TileColorIndex: 0
      m_TileObjectToInstantiateIndex: 65535
      dummyAlignment: 0
      m_AllTileFlags: 1073741825
  - first: {x: 3, y: -4, z: 0}
    second:
      serializedVersion: 2
      m_TileIndex: 34
      m_TileSpriteIndex: 34
      m_TileMatrixIndex: 0
      m_TileColorIndex: 0
      m_TileObjectToInstantiateIndex: 65535
      dummyAlignment: 0
      m_AllTileFlags: 1073741825
  - first: {x: 4, y: -4, z: 0}
    second:
      serializedVersion: 2
      m_TileIndex: 35
      m_TileSpriteIndex: 35
      m_TileMatrixIndex: 0
      m_TileColorIndex: 0
      m_TileObjectToInstantiateIndex: 65535
      dummyAlignment: 0
      m_AllTileFlags: 1073741825
  - first: {x: -1, y: -3, z: 0}
    second:
      serializedVersion: 2
      m_TileIndex: 24
      m_TileSpriteIndex: 24
      m_TileMatrixIndex: 0
      m_TileColorIndex: 0
      m_TileObjectToInstantiateIndex: 65535
      dummyAlignment: 0
      m_AllTileFlags: 1073741825
  - first: {x: 0, y: -3, z: 0}
    second:
      serializedVersion: 2
      m_TileIndex: 25
      m_TileSpriteIndex: 25
      m_TileMatrixIndex: 0
      m_TileColorIndex: 0
      m_TileObjectToInstantiateIndex: 65535
      dummyAlignment: 0
      m_AllTileFlags: 1073741825
  - first: {x: 1, y: -3, z: 0}
    second:
      serializedVersion: 2
      m_TileIndex: 26
      m_TileSpriteIndex: 26
      m_TileMatrixIndex: 0
      m_TileColorIndex: 0
      m_TileObjectToInstantiateIndex: 65535
      dummyAlignment: 0
      m_AllTileFlags: 1073741825
  - first: {x: 2, y: -3, z: 0}
    second:
      serializedVersion: 2
      m_TileIndex: 27
      m_TileSpriteIndex: 27
      m_TileMatrixIndex: 0
      m_TileColorIndex: 0
      m_TileObjectToInstantiateIndex: 65535
      dummyAlignment: 0
      m_AllTileFlags: 1073741825
  - first: {x: 3, y: -3, z: 0}
    second:
      serializedVersion: 2
      m_TileIndex: 28
      m_TileSpriteIndex: 28
      m_TileMatrixIndex: 0
      m_TileColorIndex: 0
      m_TileObjectToInstantiateIndex: 65535
      dummyAlignment: 0
      m_AllTileFlags: 1073741825
  - first: {x: 4, y: -3, z: 0}
    second:
      serializedVersion: 2
      m_TileIndex: 29
      m_TileSpriteIndex: 29
      m_TileMatrixIndex: 0
      m_TileColorIndex: 0
      m_TileObjectToInstantiateIndex: 65535
      dummyAlignment: 0
      m_AllTileFlags: 1073741825
  - first: {x: -1, y: -2, z: 0}
    second:
      serializedVersion: 2
      m_TileIndex: 18
      m_TileSpriteIndex: 18
      m_TileMatrixIndex: 0
      m_TileColorIndex: 0
      m_TileObjectToInstantiateIndex: 65535
      dummyAlignment: 0
      m_AllTileFlags: 1073741825
  - first: {x: 0, y: -2, z: 0}
    second:
      serializedVersion: 2
      m_TileIndex: 19
      m_TileSpriteIndex: 19
      m_TileMatrixIndex: 0
      m_TileColorIndex: 0
      m_TileObjectToInstantiateIndex: 65535
      dummyAlignment: 0
      m_AllTileFlags: 1073741825
  - first: {x: 1, y: -2, z: 0}
    second:
      serializedVersion: 2
      m_TileIndex: 20
      m_TileSpriteIndex: 20
      m_TileMatrixIndex: 0
      m_TileColorIndex: 0
      m_TileObjectToInstantiateIndex: 65535
      dummyAlignment: 0
      m_AllTileFlags: 1073741825
  - first: {x: 2, y: -2, z: 0}
    second:
      serializedVersion: 2
      m_TileIndex: 21
      m_TileSpriteIndex: 21
      m_TileMatrixIndex: 0
      m_TileColorIndex: 0
      m_TileObjectToInstantiateIndex: 65535
      dummyAlignment: 0
      m_AllTileFlags: 1073741825
  - first: {x: 3, y: -2, z: 0}
    second:
      serializedVersion: 2
      m_TileIndex: 22
      m_TileSpriteIndex: 22
      m_TileMatrixIndex: 0
      m_TileColorIndex: 0
      m_TileObjectToInstantiateIndex: 65535
      dummyAlignment: 0
      m_AllTileFlags: 1073741825
  - first: {x: 4, y: -2, z: 0}
    second:
      serializedVersion: 2
      m_TileIndex: 23
      m_TileSpriteIndex: 23
      m_TileMatrixIndex: 0
      m_TileColorIndex: 0
      m_TileObjectToInstantiateIndex: 65535
      dummyAlignment: 0
      m_AllTileFlags: 1073741825
  - first: {x: -1, y: -1, z: 0}
    second:
      serializedVersion: 2
      m_TileIndex: 12
      m_TileSpriteIndex: 12
      m_TileMatrixIndex: 0
      m_TileColorIndex: 0
      m_TileObjectToInstantiateIndex: 65535
      dummyAlignment: 0
      m_AllTileFlags: 1073741825
  - first: {x: 0, y: -1, z: 0}
    second:
      serializedVersion: 2
      m_TileIndex: 13
      m_TileSpriteIndex: 13
      m_TileMatrixIndex: 0
      m_TileColorIndex: 0
      m_TileObjectToInstantiateIndex: 65535
      dummyAlignment: 0
      m_AllTileFlags: 1073741825
  - first: {x: 1, y: -1, z: 0}
    second:
      serializedVersion: 2
      m_TileIndex: 14
      m_TileSpriteIndex: 14
      m_TileMatrixIndex: 0
      m_TileColorIndex: 0
      m_TileObjectToInstantiateIndex: 65535
      dummyAlignment: 0
      m_AllTileFlags: 1073741825
  - first: {x: 2, y: -1, z: 0}
    second:
      serializedVersion: 2
      m_TileIndex: 15
      m_TileSpriteIndex: 15
      m_TileMatrixIndex: 0
      m_TileColorIndex: 0
      m_TileObjectToInstantiateIndex: 65535
      dummyAlignment: 0
      m_AllTileFlags: 1073741825
  - first: {x: 3, y: -1, z: 0}
    second:
      serializedVersion: 2
      m_TileIndex: 16
      m_TileSpriteIndex: 16
      m_TileMatrixIndex: 0
      m_TileColorIndex: 0
      m_TileObjectToInstantiateIndex: 65535
      dummyAlignment: 0
      m_AllTileFlags: 1073741825
  - first: {x: 4, y: -1, z: 0}
    second:
      serializedVersion: 2
      m_TileIndex: 17
      m_TileSpriteIndex: 17
      m_TileMatrixIndex: 0
      m_TileColorIndex: 0
      m_TileObjectToInstantiateIndex: 65535
      dummyAlignment: 0
      m_AllTileFlags: 1073741825
  - first: {x: -1, y: 0, z: 0}
    second:
      serializedVersion: 2
      m_TileIndex: 6
      m_TileSpriteIndex: 6
      m_TileMatrixIndex: 0
      m_TileColorIndex: 0
      m_TileObjectToInstantiateIndex: 65535
      dummyAlignment: 0
      m_AllTileFlags: 1073741825
  - first: {x: 0, y: 0, z: 0}
    second:
      serializedVersion: 2
      m_TileIndex: 7
      m_TileSpriteIndex: 7
      m_TileMatrixIndex: 0
      m_TileColorIndex: 0
      m_TileObjectToInstantiateIndex: 65535
      dummyAlignment: 0
      m_AllTileFlags: 1073741825
  - first: {x: 1, y: 0, z: 0}
    second:
      serializedVersion: 2
      m_TileIndex: 8
      m_TileSpriteIndex: 8
      m_TileMatrixIndex: 0
      m_TileColorIndex: 0
      m_TileObjectToInstantiateIndex: 65535
      dummyAlignment: 0
      m_AllTileFlags: 1073741825
  - first: {x: 2, y: 0, z: 0}
    second:
      serializedVersion: 2
      m_TileIndex: 9
      m_TileSpriteIndex: 9
      m_TileMatrixIndex: 0
      m_TileColorIndex: 0
      m_TileObjectToInstantiateIndex: 65535
      dummyAlignment: 0
      m_AllTileFlags: 1073741825
  - first: {x: 3, y: 0, z: 0}
    second:
      serializedVersion: 2
      m_TileIndex: 10
      m_TileSpriteIndex: 10
      m_TileMatrixIndex: 0
      m_TileColorIndex: 0
      m_TileObjectToInstantiateIndex: 65535
      dummyAlignment: 0
      m_AllTileFlags: 1073741825
  - first: {x: 4, y: 0, z: 0}
    second:
      serializedVersion: 2
      m_TileIndex: 11
      m_TileSpriteIndex: 11
      m_TileMatrixIndex: 0
      m_TileColorIndex: 0
      m_TileObjectToInstantiateIndex: 65535
      dummyAlignment: 0
      m_AllTileFlags: 1073741825
  - first: {x: -1, y: 1, z: 0}
    second:
      serializedVersion: 2
      m_TileIndex: 0
      m_TileSpriteIndex: 0
      m_TileMatrixIndex: 0
      m_TileColorIndex: 0
      m_TileObjectToInstantiateIndex: 65535
      dummyAlignment: 0
      m_AllTileFlags: 1073741825
  - first: {x: 0, y: 1, z: 0}
    second:
      serializedVersion: 2
      m_TileIndex: 1
      m_TileSpriteIndex: 1
      m_TileMatrixIndex: 0
      m_TileColorIndex: 0
      m_TileObjectToInstantiateIndex: 65535
      dummyAlignment: 0
      m_AllTileFlags: 1073741825
  - first: {x: 1, y: 1, z: 0}
    second:
      serializedVersion: 2
      m_TileIndex: 2
      m_TileSpriteIndex: 2
      m_TileMatrixIndex: 0
      m_TileColorIndex: 0
      m_TileObjectToInstantiateIndex: 65535
      dummyAlignment: 0
      m_AllTileFlags: 1073741825
  - first: {x: 2, y: 1, z: 0}
    second:
      serializedVersion: 2
      m_TileIndex: 3
      m_TileSpriteIndex: 3
      m_TileMatrixIndex: 0
      m_TileColorIndex: 0
      m_TileObjectToInstantiateIndex: 65535
      dummyAlignment: 0
      m_AllTileFlags: 1073741825
  - first: {x: 3, y: 1, z: 0}
    second:
      serializedVersion: 2
      m_TileIndex: 4
      m_TileSpriteIndex: 4
      m_TileMatrixIndex: 0
      m_TileColorIndex: 0
      m_TileObjectToInstantiateIndex: 65535
      dummyAlignment: 0
      m_AllTileFlags: 1073741825
  - first: {x: 4, y: 1, z: 0}
    second:
      serializedVersion: 2
      m_TileIndex: 5
      m_TileSpriteIndex: 5
      m_TileMatrixIndex: 0
      m_TileColorIndex: 0
      m_TileObjectToInstantiateIndex: 65535
      dummyAlignment: 0
      m_AllTileFlags: 1073741825
  m_AnimatedTiles: {}
  m_TileAssetArray:
  - m_RefCount: 1
    m_Data: {fileID: 11400000, guid: e9ace6338fdbf044e86acab6ee1496cb, type: 2}
  - m_RefCount: 1
    m_Data: {fileID: 11400000, guid: cd285ee5c2a4a044f93de41a5faca40e, type: 2}
  - m_RefCount: 1
    m_Data: {fileID: 11400000, guid: 88008849d89ec264f8dbbf1bb78e2840, type: 2}
  - m_RefCount: 1
    m_Data: {fileID: 11400000, guid: 7a8483649c2838447b88adb62892faca, type: 2}
  - m_RefCount: 1
    m_Data: {fileID: 11400000, guid: 67eb4235b329e8a4693c512665713e16, type: 2}
  - m_RefCount: 1
    m_Data: {fileID: 11400000, guid: b461808f2b6718246ba45f5ae8a6ec2d, type: 2}
  - m_RefCount: 1
    m_Data: {fileID: 11400000, guid: 76d17f208607f914d81dd42070245bb1, type: 2}
  - m_RefCount: 1
    m_Data: {fileID: 11400000, guid: 261aa59038250d645870f11112be11e9, type: 2}
  - m_RefCount: 1
    m_Data: {fileID: 11400000, guid: a844d3d69871dd645894024d02ddb922, type: 2}
  - m_RefCount: 1
    m_Data: {fileID: 11400000, guid: 7a2e0dbda83a24045b5e8402a471f905, type: 2}
  - m_RefCount: 1
    m_Data: {fileID: 11400000, guid: 18ee5c0caf805b740be401431cd7a180, type: 2}
  - m_RefCount: 1
    m_Data: {fileID: 11400000, guid: 2ef33c14e71a90c4a87444c873a235ee, type: 2}
  - m_RefCount: 1
    m_Data: {fileID: 11400000, guid: 52f26f53b70ad2d47ab9808bc6c09444, type: 2}
  - m_RefCount: 1
    m_Data: {fileID: 11400000, guid: da8ed60ca7fba0946bfae7d16766c293, type: 2}
  - m_RefCount: 1
    m_Data: {fileID: 11400000, guid: 8cd38704e6a161548bf49718598c9023, type: 2}
  - m_RefCount: 1
    m_Data: {fileID: 11400000, guid: 2d51034d6f88d564dbf72dda09de35f4, type: 2}
  - m_RefCount: 1
    m_Data: {fileID: 11400000, guid: 271ae48c9042f0140aab9db9d18cedb5, type: 2}
  - m_RefCount: 1
    m_Data: {fileID: 11400000, guid: 591acb96a3e69ba4d88e413270836716, type: 2}
  - m_RefCount: 1
    m_Data: {fileID: 11400000, guid: a516e989eb0b09c4cb9be05aa6fe3107, type: 2}
  - m_RefCount: 1
    m_Data: {fileID: 11400000, guid: b6e4dd534c3db3549be7567ff30ac07f, type: 2}
  - m_RefCount: 1
    m_Data: {fileID: 11400000, guid: 66fe2b76ff04f5d4599c6f3fbae7fea9, type: 2}
  - m_RefCount: 1
    m_Data: {fileID: 11400000, guid: 6066737ddcdf62a40867b50df265c42a, type: 2}
  - m_RefCount: 1
    m_Data: {fileID: 11400000, guid: dfb24b023f7eaee43b14d1aca01dd94f, type: 2}
  - m_RefCount: 1
    m_Data: {fileID: 11400000, guid: fdce3220bd9d09f48b61793eed877c49, type: 2}
  - m_RefCount: 1
    m_Data: {fileID: 11400000, guid: 0a393c31cf7c4414b9ae2bb8b60ba1e4, type: 2}
  - m_RefCount: 1
    m_Data: {fileID: 11400000, guid: 3fe8015f8cb0ae440ad142f25774e9d6, type: 2}
  - m_RefCount: 1
    m_Data: {fileID: 11400000, guid: 75a124d99d2fae74a9b96cbbad1406e4, type: 2}
  - m_RefCount: 1
    m_Data: {fileID: 11400000, guid: c0848e3895d96ea44825a18705071b2c, type: 2}
  - m_RefCount: 1
    m_Data: {fileID: 11400000, guid: cb45d94a94fa92b42ab4bbce71bbf0f4, type: 2}
  - m_RefCount: 1
    m_Data: {fileID: 11400000, guid: 01f772775d31da6419d6b0912f2440ca, type: 2}
  - m_RefCount: 1
    m_Data: {fileID: 11400000, guid: e6282d028f5d5da45b636ddd662e8c84, type: 2}
  - m_RefCount: 1
    m_Data: {fileID: 11400000, guid: c0cfeb7ae1fb82d45a050e0dda8fcdfa, type: 2}
  - m_RefCount: 1
    m_Data: {fileID: 11400000, guid: 2deae0c725ea23847beb373cedeec8f0, type: 2}
  - m_RefCount: 1
    m_Data: {fileID: 11400000, guid: b4235fe08ea14244f851a37c6d71fb59, type: 2}
  - m_RefCount: 1
    m_Data: {fileID: 11400000, guid: 19c021f1cb1c92e4cb0d198cc9ffff86, type: 2}
  - m_RefCount: 1
    m_Data: {fileID: 11400000, guid: 0e2b2d3bbf40240469d7cb31b0a2b815, type: 2}
  - m_RefCount: 1
    m_Data: {fileID: 11400000, guid: 74bcc818935e6754ebcb633eba9aa57b, type: 2}
  - m_RefCount: 1
    m_Data: {fileID: 11400000, guid: 05ef13b31d5481746897c39fe12d172a, type: 2}
  - m_RefCount: 1
    m_Data: {fileID: 11400000, guid: 1ebb1a4f840e3c2459ebc0b2db798e0b, type: 2}
  - m_RefCount: 1
    m_Data: {fileID: 11400000, guid: 9dac0428f906f5e49879adf62d012fbd, type: 2}
  - m_RefCount: 1
    m_Data: {fileID: 11400000, guid: c8c47742c35d1884da9ae96f4878c198, type: 2}
  - m_RefCount: 1
    m_Data: {fileID: 11400000, guid: acbb4ec4eb6dad54dba974c88acb0015, type: 2}
  - m_RefCount: 1
    m_Data: {fileID: 11400000, guid: a026989134c224e4aa1cf0e6f26cc7f2, type: 2}
  - m_RefCount: 1
    m_Data: {fileID: 11400000, guid: 83ebae15b8dbad74ba09526610481aab, type: 2}
  - m_RefCount: 1
    m_Data: {fileID: 11400000, guid: 1cb4d242966d2dc47a142db9d0e2a5db, type: 2}
  - m_RefCount: 1
    m_Data: {fileID: 11400000, guid: 55719e86a339a394ba5c2853aca1a509, type: 2}
  - m_RefCount: 1
    m_Data: {fileID: 11400000, guid: 47186372956236b4b806f2bad457553f, type: 2}
  - m_RefCount: 1
    m_Data: {fileID: 11400000, guid: 59664c337e6fa88439059e3c726705c2, type: 2}
  - m_RefCount: 1
    m_Data: {fileID: 11400000, guid: 7d9881c34e4f6f74b9b6b45387f3c786, type: 2}
  - m_RefCount: 1
    m_Data: {fileID: 11400000, guid: 266f0f03c3758fb49bc7b342c1964fb6, type: 2}
  - m_RefCount: 1
    m_Data: {fileID: 11400000, guid: 1a49fad8cde682f4b95deeb80e7002b5, type: 2}
  - m_RefCount: 1
    m_Data: {fileID: 11400000, guid: d13edce98b4eb5c42b9479e341e8b95a, type: 2}
  - m_RefCount: 1
    m_Data: {fileID: 11400000, guid: 1e459b8e6c771744c9a5ede5337d2840, type: 2}
  - m_RefCount: 1
    m_Data: {fileID: 11400000, guid: 0b7d45bb8d2cdc74f9f3147e80a93915, type: 2}
  - m_RefCount: 1
    m_Data: {fileID: 11400000, guid: fc400d35376fd624aa6c52a675bfaf07, type: 2}
  - m_RefCount: 1
    m_Data: {fileID: 11400000, guid: f7b1ef1affd33714d9f0ddad14f2b819, type: 2}
  - m_RefCount: 1
    m_Data: {fileID: 11400000, guid: 8a60e1de0386b584b9a6e5ece4ee6f70, type: 2}
  - m_RefCount: 1
    m_Data: {fileID: 11400000, guid: 635b9a1688621104cba2aa16e275c5af, type: 2}
  - m_RefCount: 1
    m_Data: {fileID: 11400000, guid: acb96eaec9752b841b051e5dc0dbc73f, type: 2}
  - m_RefCount: 1
    m_Data: {fileID: 11400000, guid: 0c50a917ecd3558448421a73b149762e, type: 2}
  - m_RefCount: 1
    m_Data: {fileID: 11400000, guid: 540c6e542fb38244f8ac2efbf8178f3f, type: 2}
  - m_RefCount: 1
    m_Data: {fileID: 11400000, guid: 3f2499125e877c44b9d74b6da25c602e, type: 2}
  - m_RefCount: 1
    m_Data: {fileID: 11400000, guid: 990588c928862ce4a850d7a3b1582496, type: 2}
  - m_RefCount: 1
    m_Data: {fileID: 11400000, guid: 1b358929784b9d94d92ca9d98c7547e0, type: 2}
  - m_RefCount: 1
    m_Data: {fileID: 11400000, guid: e8b3f52534845e141869c76a1cea2aa5, type: 2}
  - m_RefCount: 1
    m_Data: {fileID: 11400000, guid: e528dab930703f348b31b169bc92124e, type: 2}
  - m_RefCount: 1
    m_Data: {fileID: 11400000, guid: bb1911948edd98b4ebe4bd0a4a0d6aa3, type: 2}
  - m_RefCount: 1
    m_Data: {fileID: 11400000, guid: 1bc802c51cb977a48bb62256c9b37243, type: 2}
  - m_RefCount: 1
    m_Data: {fileID: 11400000, guid: ff7a731792f68bf429120f52b6626a1c, type: 2}
  - m_RefCount: 1
    m_Data: {fileID: 11400000, guid: cf932aa450707e7438dc7defa6ef8627, type: 2}
  - m_RefCount: 1
    m_Data: {fileID: 11400000, guid: 87e16217ff9ebee46a080cb4af1292ff, type: 2}
  - m_RefCount: 1
    m_Data: {fileID: 11400000, guid: 5046d797d2dac8a46ba256656f2ce386, type: 2}
  - m_RefCount: 1
    m_Data: {fileID: 11400000, guid: 33539f01b754ef442b58b1be24755706, type: 2}
  - m_RefCount: 1
    m_Data: {fileID: 11400000, guid: b3e983588264c334195290b01d953b19, type: 2}
  - m_RefCount: 1
    m_Data: {fileID: 11400000, guid: fd80fa85eeaea684287327ea609aef0e, type: 2}
  - m_RefCount: 1
    m_Data: {fileID: 11400000, guid: 39a90d33410b6644fa37f0e5cee7c076, type: 2}
  - m_RefCount: 1
    m_Data: {fileID: 11400000, guid: db45aba1ebbc152429ef4a86a80ab99b, type: 2}
  - m_RefCount: 1
    m_Data: {fileID: 11400000, guid: f868c720312f236489379ebcdcfbb967, type: 2}
  - m_RefCount: 1
    m_Data: {fileID: 11400000, guid: d4cdbfcfcaa94824c869381a4b9ecf13, type: 2}
  - m_RefCount: 1
    m_Data: {fileID: 11400000, guid: e94c816ec0648cb4a8dc0922a05f40db, type: 2}
  - m_RefCount: 1
    m_Data: {fileID: 11400000, guid: 1654220eaebf7694a8cf22d42176c7fd, type: 2}
  - m_RefCount: 1
    m_Data: {fileID: 11400000, guid: c95d5a08eb24e27469ff2209e678230f, type: 2}
  - m_RefCount: 1
    m_Data: {fileID: 11400000, guid: 4341a7d078e06bb449995c2185cb29a0, type: 2}
  - m_RefCount: 1
    m_Data: {fileID: 11400000, guid: b035f3b1961ed044d8af71f010d5a40b, type: 2}
  - m_RefCount: 1
    m_Data: {fileID: 11400000, guid: 550881913dcc42344808a14f9449383a, type: 2}
  - m_RefCount: 1
    m_Data: {fileID: 11400000, guid: ae14d06ae127377428b673dfefeae37e, type: 2}
  - m_RefCount: 1
    m_Data: {fileID: 11400000, guid: 7dadd69bc13c7b94eb9c847b56406bcd, type: 2}
  - m_RefCount: 1
    m_Data: {fileID: 11400000, guid: 250884abe4f55e44b9217bf216bd9e48, type: 2}
  - m_RefCount: 1
    m_Data: {fileID: 11400000, guid: 8707ac30693420a4680ed21139b72596, type: 2}
  - m_RefCount: 1
    m_Data: {fileID: 11400000, guid: d07ded94b9a5f5f4286c0f738618f581, type: 2}
  - m_RefCount: 1
    m_Data: {fileID: 11400000, guid: f0dfb7c5a79522e4dbc07707b236cafd, type: 2}
  - m_RefCount: 1
    m_Data: {fileID: 11400000, guid: e5464831d18cd3c44b6dd2a56d52ed0e, type: 2}
  - m_RefCount: 1
    m_Data: {fileID: 11400000, guid: 38b3812b64fa4274b9b94a15ac3d3dc8, type: 2}
  - m_RefCount: 1
    m_Data: {fileID: 11400000, guid: 33383e0a8034a414da2171b5aab6a26d, type: 2}
  - m_RefCount: 1
    m_Data: {fileID: 11400000, guid: 6603b629bf5286d4083551787cd0a6ad, type: 2}
  - m_RefCount: 1
    m_Data: {fileID: 11400000, guid: 30521a746ac38e842986ecf8e9ecd8c5, type: 2}
  - m_RefCount: 1
    m_Data: {fileID: 11400000, guid: dd12e6acacc8da6429f5d4b101879b82, type: 2}
  - m_RefCount: 1
    m_Data: {fileID: 11400000, guid: a80e8469df790bc49ad61739098a6aa2, type: 2}
  - m_RefCount: 1
    m_Data: {fileID: 11400000, guid: 691bdb57428edfe4fa55ab8c253b7f35, type: 2}
  - m_RefCount: 1
    m_Data: {fileID: 11400000, guid: 3f2fb21a92ec3bd4b9000b1ffcbddf14, type: 2}
  - m_RefCount: 1
    m_Data: {fileID: 11400000, guid: fee799fed2528274881022502c6fdf5d, type: 2}
  - m_RefCount: 1
    m_Data: {fileID: 11400000, guid: ea0cf3ba6058370428f564fc50696304, type: 2}
  - m_RefCount: 1
    m_Data: {fileID: 11400000, guid: fdeac9d4c8aa3bc4989c47cb86008941, type: 2}
  - m_RefCount: 1
    m_Data: {fileID: 11400000, guid: 71dcffe1ce9a2ae45ade5d615c727577, type: 2}
  - m_RefCount: 1
    m_Data: {fileID: 11400000, guid: e2b11b8b8b0c0c4459016c583ba09514, type: 2}
  - m_RefCount: 1
    m_Data: {fileID: 11400000, guid: da0e4d00cfff9f34d8796f50d81c9512, type: 2}
  - m_RefCount: 1
    m_Data: {fileID: 11400000, guid: cb1ad0bb31314f84387f8d271bdd5d13, type: 2}
  - m_RefCount: 1
    m_Data: {fileID: 11400000, guid: cfb50043d7b154943abd163e83132b5b, type: 2}
  m_TileSpriteArray:
  - m_RefCount: 1
    m_Data: {fileID: 53231008, guid: 90570b5ab3f193440b3374638c62c032, type: 3}
  - m_RefCount: 1
    m_Data: {fileID: 2018370824, guid: 90570b5ab3f193440b3374638c62c032, type: 3}
  - m_RefCount: 1
    m_Data: {fileID: 1453707640, guid: 90570b5ab3f193440b3374638c62c032, type: 3}
  - m_RefCount: 1
    m_Data: {fileID: -873859281, guid: 90570b5ab3f193440b3374638c62c032, type: 3}
  - m_RefCount: 1
    m_Data: {fileID: 1091449058, guid: 90570b5ab3f193440b3374638c62c032, type: 3}
  - m_RefCount: 1
    m_Data: {fileID: -249103780, guid: 90570b5ab3f193440b3374638c62c032, type: 3}
  - m_RefCount: 1
    m_Data: {fileID: -1166510166, guid: 90570b5ab3f193440b3374638c62c032, type: 3}
  - m_RefCount: 1
    m_Data: {fileID: 2074423764, guid: 90570b5ab3f193440b3374638c62c032, type: 3}
  - m_RefCount: 1
    m_Data: {fileID: -829532248, guid: 90570b5ab3f193440b3374638c62c032, type: 3}
  - m_RefCount: 1
    m_Data: {fileID: -1052695379, guid: 90570b5ab3f193440b3374638c62c032, type: 3}
  - m_RefCount: 1
    m_Data: {fileID: 427296985, guid: 90570b5ab3f193440b3374638c62c032, type: 3}
  - m_RefCount: 1
    m_Data: {fileID: 1976217952, guid: 90570b5ab3f193440b3374638c62c032, type: 3}
  - m_RefCount: 1
    m_Data: {fileID: 743346352, guid: 90570b5ab3f193440b3374638c62c032, type: 3}
  - m_RefCount: 1
    m_Data: {fileID: -1558700876, guid: 90570b5ab3f193440b3374638c62c032, type: 3}
  - m_RefCount: 1
    m_Data: {fileID: 82606228, guid: 90570b5ab3f193440b3374638c62c032, type: 3}
  - m_RefCount: 1
    m_Data: {fileID: 895492748, guid: 90570b5ab3f193440b3374638c62c032, type: 3}
  - m_RefCount: 1
    m_Data: {fileID: -2079273489, guid: 90570b5ab3f193440b3374638c62c032, type: 3}
  - m_RefCount: 1
    m_Data: {fileID: 1053663569, guid: 90570b5ab3f193440b3374638c62c032, type: 3}
  - m_RefCount: 1
    m_Data: {fileID: 73874056, guid: 90570b5ab3f193440b3374638c62c032, type: 3}
  - m_RefCount: 1
    m_Data: {fileID: -1633374170, guid: 90570b5ab3f193440b3374638c62c032, type: 3}
  - m_RefCount: 1
    m_Data: {fileID: 1631035204, guid: 90570b5ab3f193440b3374638c62c032, type: 3}
  - m_RefCount: 1
    m_Data: {fileID: 1571955162, guid: 90570b5ab3f193440b3374638c62c032, type: 3}
  - m_RefCount: 1
    m_Data: {fileID: -2092434847, guid: 90570b5ab3f193440b3374638c62c032, type: 3}
  - m_RefCount: 1
    m_Data: {fileID: 1930562574, guid: 90570b5ab3f193440b3374638c62c032, type: 3}
  - m_RefCount: 1
    m_Data: {fileID: 1492849909, guid: 90570b5ab3f193440b3374638c62c032, type: 3}
  - m_RefCount: 1
    m_Data: {fileID: 1021849942, guid: 90570b5ab3f193440b3374638c62c032, type: 3}
  - m_RefCount: 1
    m_Data: {fileID: 602523534, guid: 90570b5ab3f193440b3374638c62c032, type: 3}
  - m_RefCount: 1
    m_Data: {fileID: 1889783977, guid: 90570b5ab3f193440b3374638c62c032, type: 3}
  - m_RefCount: 1
    m_Data: {fileID: 29240169, guid: 90570b5ab3f193440b3374638c62c032, type: 3}
  - m_RefCount: 1
    m_Data: {fileID: -718715715, guid: 90570b5ab3f193440b3374638c62c032, type: 3}
  - m_RefCount: 1
    m_Data: {fileID: 1413243797, guid: 90570b5ab3f193440b3374638c62c032, type: 3}
  - m_RefCount: 1
    m_Data: {fileID: 1984849095, guid: 90570b5ab3f193440b3374638c62c032, type: 3}
  - m_RefCount: 1
    m_Data: {fileID: 338973278, guid: 90570b5ab3f193440b3374638c62c032, type: 3}
  - m_RefCount: 1
    m_Data: {fileID: 580852281, guid: 90570b5ab3f193440b3374638c62c032, type: 3}
  - m_RefCount: 1
    m_Data: {fileID: 1493989630, guid: 90570b5ab3f193440b3374638c62c032, type: 3}
  - m_RefCount: 1
    m_Data: {fileID: -123968638, guid: 90570b5ab3f193440b3374638c62c032, type: 3}
  - m_RefCount: 1
    m_Data: {fileID: -1910793040, guid: 90570b5ab3f193440b3374638c62c032, type: 3}
  - m_RefCount: 1
    m_Data: {fileID: 1314030587, guid: 90570b5ab3f193440b3374638c62c032, type: 3}
  - m_RefCount: 1
    m_Data: {fileID: 1727500730, guid: 90570b5ab3f193440b3374638c62c032, type: 3}
  - m_RefCount: 1
    m_Data: {fileID: -623064676, guid: 90570b5ab3f193440b3374638c62c032, type: 3}
  - m_RefCount: 1
    m_Data: {fileID: 900511902, guid: 90570b5ab3f193440b3374638c62c032, type: 3}
  - m_RefCount: 1
    m_Data: {fileID: -1491540332, guid: 90570b5ab3f193440b3374638c62c032, type: 3}
  - m_RefCount: 1
    m_Data: {fileID: 1480612912, guid: 90570b5ab3f193440b3374638c62c032, type: 3}
  - m_RefCount: 1
    m_Data: {fileID: -169775627, guid: 90570b5ab3f193440b3374638c62c032, type: 3}
  - m_RefCount: 1
    m_Data: {fileID: -727153117, guid: 90570b5ab3f193440b3374638c62c032, type: 3}
  - m_RefCount: 1
    m_Data: {fileID: 727399195, guid: 90570b5ab3f193440b3374638c62c032, type: 3}
  - m_RefCount: 1
    m_Data: {fileID: 1502137410, guid: 90570b5ab3f193440b3374638c62c032, type: 3}
  - m_RefCount: 1
    m_Data: {fileID: -2014826883, guid: 90570b5ab3f193440b3374638c62c032, type: 3}
  - m_RefCount: 1
    m_Data: {fileID: -1021781437, guid: 90570b5ab3f193440b3374638c62c032, type: 3}
  - m_RefCount: 1
    m_Data: {fileID: 173478038, guid: 90570b5ab3f193440b3374638c62c032, type: 3}
  - m_RefCount: 1
    m_Data: {fileID: -1119237966, guid: 90570b5ab3f193440b3374638c62c032, type: 3}
  - m_RefCount: 1
    m_Data: {fileID: -1009477378, guid: 90570b5ab3f193440b3374638c62c032, type: 3}
  - m_RefCount: 1
    m_Data: {fileID: 1116742134, guid: 90570b5ab3f193440b3374638c62c032, type: 3}
  - m_RefCount: 1
    m_Data: {fileID: -1978613992, guid: 90570b5ab3f193440b3374638c62c032, type: 3}
  - m_RefCount: 1
    m_Data: {fileID: 355086335, guid: 90570b5ab3f193440b3374638c62c032, type: 3}
  - m_RefCount: 1
    m_Data: {fileID: 541955503, guid: 90570b5ab3f193440b3374638c62c032, type: 3}
  - m_RefCount: 1
    m_Data: {fileID: -624846567, guid: 90570b5ab3f193440b3374638c62c032, type: 3}
  - m_RefCount: 1
    m_Data: {fileID: -2120861976, guid: 90570b5ab3f193440b3374638c62c032, type: 3}
  - m_RefCount: 1
    m_Data: {fileID: 826313308, guid: 90570b5ab3f193440b3374638c62c032, type: 3}
  - m_RefCount: 1
    m_Data: {fileID: -1588851499, guid: 90570b5ab3f193440b3374638c62c032, type: 3}
  - m_RefCount: 1
    m_Data: {fileID: 964966924, guid: 90570b5ab3f193440b3374638c62c032, type: 3}
  - m_RefCount: 1
    m_Data: {fileID: -878436374, guid: 90570b5ab3f193440b3374638c62c032, type: 3}
  - m_RefCount: 1
    m_Data: {fileID: 932727736, guid: 90570b5ab3f193440b3374638c62c032, type: 3}
  - m_RefCount: 1
    m_Data: {fileID: -178322338, guid: 90570b5ab3f193440b3374638c62c032, type: 3}
  - m_RefCount: 1
    m_Data: {fileID: 1567887968, guid: 90570b5ab3f193440b3374638c62c032, type: 3}
  - m_RefCount: 1
    m_Data: {fileID: 1621021189, guid: 90570b5ab3f193440b3374638c62c032, type: 3}
  - m_RefCount: 1
    m_Data: {fileID: -1727741873, guid: 90570b5ab3f193440b3374638c62c032, type: 3}
  - m_RefCount: 1
    m_Data: {fileID: 569244022, guid: 90570b5ab3f193440b3374638c62c032, type: 3}
  - m_RefCount: 1
    m_Data: {fileID: -1669203270, guid: 90570b5ab3f193440b3374638c62c032, type: 3}
  - m_RefCount: 1
    m_Data: {fileID: 807825187, guid: 90570b5ab3f193440b3374638c62c032, type: 3}
  - m_RefCount: 1
    m_Data: {fileID: 2121004683, guid: 90570b5ab3f193440b3374638c62c032, type: 3}
  - m_RefCount: 1
    m_Data: {fileID: -141887355, guid: 90570b5ab3f193440b3374638c62c032, type: 3}
  - m_RefCount: 1
    m_Data: {fileID: 1106379984, guid: 90570b5ab3f193440b3374638c62c032, type: 3}
  - m_RefCount: 1
    m_Data: {fileID: 719862320, guid: 90570b5ab3f193440b3374638c62c032, type: 3}
  - m_RefCount: 1
    m_Data: {fileID: 1053789566, guid: 90570b5ab3f193440b3374638c62c032, type: 3}
  - m_RefCount: 1
    m_Data: {fileID: -1915396352, guid: 90570b5ab3f193440b3374638c62c032, type: 3}
  - m_RefCount: 1
    m_Data: {fileID: -958486378, guid: 90570b5ab3f193440b3374638c62c032, type: 3}
  - m_RefCount: 1
    m_Data: {fileID: 1310015496, guid: 90570b5ab3f193440b3374638c62c032, type: 3}
  - m_RefCount: 1
    m_Data: {fileID: -1464143168, guid: 90570b5ab3f193440b3374638c62c032, type: 3}
  - m_RefCount: 1
    m_Data: {fileID: -1970210978, guid: 90570b5ab3f193440b3374638c62c032, type: 3}
  - m_RefCount: 1
    m_Data: {fileID: -1706320724, guid: 90570b5ab3f193440b3374638c62c032, type: 3}
  - m_RefCount: 1
    m_Data: {fileID: -702928360, guid: 90570b5ab3f193440b3374638c62c032, type: 3}
  - m_RefCount: 1
    m_Data: {fileID: 645663729, guid: 90570b5ab3f193440b3374638c62c032, type: 3}
  - m_RefCount: 1
    m_Data: {fileID: 470352245, guid: 90570b5ab3f193440b3374638c62c032, type: 3}
  - m_RefCount: 1
    m_Data: {fileID: -2082130398, guid: 90570b5ab3f193440b3374638c62c032, type: 3}
  - m_RefCount: 1
    m_Data: {fileID: -570329564, guid: 90570b5ab3f193440b3374638c62c032, type: 3}
  - m_RefCount: 1
    m_Data: {fileID: -597455909, guid: 90570b5ab3f193440b3374638c62c032, type: 3}
  - m_RefCount: 1
    m_Data: {fileID: 299653998, guid: 90570b5ab3f193440b3374638c62c032, type: 3}
  - m_RefCount: 1
    m_Data: {fileID: 365214138, guid: 90570b5ab3f193440b3374638c62c032, type: 3}
  - m_RefCount: 1
    m_Data: {fileID: 1553526441, guid: 90570b5ab3f193440b3374638c62c032, type: 3}
  - m_RefCount: 1
    m_Data: {fileID: -2030797617, guid: 90570b5ab3f193440b3374638c62c032, type: 3}
  - m_RefCount: 1
    m_Data: {fileID: 1480330530, guid: 90570b5ab3f193440b3374638c62c032, type: 3}
  - m_RefCount: 1
    m_Data: {fileID: -553109660, guid: 90570b5ab3f193440b3374638c62c032, type: 3}
  - m_RefCount: 1
    m_Data: {fileID: 487509575, guid: 90570b5ab3f193440b3374638c62c032, type: 3}
  - m_RefCount: 1
    m_Data: {fileID: 372483716, guid: 90570b5ab3f193440b3374638c62c032, type: 3}
  - m_RefCount: 1
    m_Data: {fileID: -1082924211, guid: 90570b5ab3f193440b3374638c62c032, type: 3}
  - m_RefCount: 1
    m_Data: {fileID: 1226091125, guid: 90570b5ab3f193440b3374638c62c032, type: 3}
  - m_RefCount: 1
    m_Data: {fileID: -1172615489, guid: 90570b5ab3f193440b3374638c62c032, type: 3}
  - m_RefCount: 1
    m_Data: {fileID: -1390309557, guid: 90570b5ab3f193440b3374638c62c032, type: 3}
  - m_RefCount: 1
    m_Data: {fileID: 804961961, guid: 90570b5ab3f193440b3374638c62c032, type: 3}
  - m_RefCount: 1
    m_Data: {fileID: -1479707400, guid: 90570b5ab3f193440b3374638c62c032, type: 3}
  - m_RefCount: 1
    m_Data: {fileID: 2071364231, guid: 90570b5ab3f193440b3374638c62c032, type: 3}
  - m_RefCount: 1
    m_Data: {fileID: 1543844030, guid: 90570b5ab3f193440b3374638c62c032, type: 3}
  - m_RefCount: 1
    m_Data: {fileID: -1651066871, guid: 90570b5ab3f193440b3374638c62c032, type: 3}
  - m_RefCount: 1
    m_Data: {fileID: -1897336026, guid: 90570b5ab3f193440b3374638c62c032, type: 3}
  - m_RefCount: 1
    m_Data: {fileID: -1344636450, guid: 90570b5ab3f193440b3374638c62c032, type: 3}
  - m_RefCount: 1
    m_Data: {fileID: 708298756, guid: 90570b5ab3f193440b3374638c62c032, type: 3}
  - m_RefCount: 1
    m_Data: {fileID: 429344451, guid: 90570b5ab3f193440b3374638c62c032, type: 3}
  m_TileMatrixArray:
  - m_RefCount: 108
    m_Data:
      e00: 1
      e01: 0
      e02: 0
      e03: 0
      e10: 0
      e11: 1
      e12: 0
      e13: 0
      e20: 0
      e21: 0
      e22: 1
      e23: 0
      e30: 0
      e31: 0
      e32: 0
      e33: 1
  m_TileColorArray:
  - m_RefCount: 108
    m_Data: {r: 1, g: 1, b: 1, a: 1}
  m_TileObjectToInstantiateArray: []
  m_AnimationFrameRate: 1
  m_Color: {r: 1, g: 1, b: 1, a: 1}
  m_Origin: {x: -1, y: -16, z: 0}
  m_Size: {x: 6, y: 18, z: 1}
  m_TileAnchor: {x: 0.5, y: 0.5, z: 0}
  m_TileOrientation: 0
  m_TileOrientationMatrix:
    e00: 1
    e01: 0
    e02: 0
    e03: 0
    e10: 0
    e11: 1
    e12: 0
    e13: 0
    e20: 0
    e21: 0
    e22: 1
    e23: 0
    e30: 0
    e31: 0
    e32: 0
    e33: 1
--- !u!483693784 &2349977700611669501
TilemapRenderer:
  m_ObjectHideFlags: 0
  m_CorrespondingSourceObject: {fileID: 0}
  m_PrefabInstance: {fileID: 0}
  m_PrefabAsset: {fileID: 0}
  m_GameObject: {fileID: 7251291970705955217}
  m_Enabled: 1
  m_CastShadows: 0
  m_ReceiveShadows: 0
  m_DynamicOccludee: 0
  m_StaticShadowCaster: 0
  m_MotionVectors: 1
  m_LightProbeUsage: 0
  m_ReflectionProbeUsage: 0
  m_RayTracingMode: 0
  m_RayTraceProcedural: 0
  m_RenderingLayerMask: 1
  m_RendererPriority: 0
  m_Materials:
  - {fileID: 10754, guid: 0000000000000000f000000000000000, type: 0}
  m_StaticBatchInfo:
    firstSubMesh: 0
    subMeshCount: 0
  m_StaticBatchRoot: {fileID: 0}
  m_ProbeAnchor: {fileID: 0}
  m_LightProbeVolumeOverride: {fileID: 0}
  m_ScaleInLightmap: 1
  m_ReceiveGI: 1
  m_PreserveUVs: 0
  m_IgnoreNormalsForChartDetection: 0
  m_ImportantGI: 0
  m_StitchLightmapSeams: 1
  m_SelectedEditorRenderState: 0
  m_MinimumChartSize: 4
  m_AutoUVMaxDistance: 0.5
  m_AutoUVMaxAngle: 89
  m_LightmapParameters: {fileID: 0}
  m_SortingLayerID: 0
  m_SortingLayer: 0
  m_SortingOrder: 0
  m_ChunkSize: {x: 32, y: 32, z: 32}
  m_ChunkCullingBounds: {x: 0, y: 0, z: 0}
  m_MaxChunkCount: 16
  m_MaxFrameAge: 16
  m_SortOrder: 0
  m_Mode: 0
  m_DetectChunkCullingBounds: 0
  m_MaskInteraction: 0
--- !u!114 &8933363218837190592
MonoBehaviour:
  m_ObjectHideFlags: 0
  m_CorrespondingSourceObject: {fileID: 0}
  m_PrefabInstance: {fileID: 0}
  m_PrefabAsset: {fileID: 0}
  m_GameObject: {fileID: 0}
  m_Enabled: 1
  m_EditorHideFlags: 0
  m_Script: {fileID: 12395, guid: 0000000000000000e000000000000000, type: 0}
  m_Name: Palette Settings
  m_EditorClassIdentifier: 
  cellSizing: 0
  m_TransparencySortMode: 0
  m_TransparencySortAxis: {x: 0, y: 0, z: 1}
