%YAML 1.1
%TAG !u! tag:unity3d.com,2011:
--- !u!1 &4857853449737358264
GameObject:
  m_ObjectHideFlags: 0
  m_CorrespondingSourceObject: {fileID: 0}
  m_PrefabInstance: {fileID: 0}
  m_PrefabAsset: {fileID: 0}
  serializedVersion: 6
  m_Component:
  - component: {fileID: 5003504916848063476}
  - component: {fileID: 5126340330538476937}
  m_Layer: 0
  m_Name: Snow Tileset
  m_TagString: Untagged
  m_Icon: {fileID: 0}
  m_NavMeshLayer: 0
  m_StaticEditorFlags: 0
  m_IsActive: 1
--- !u!4 &5003504916848063476
Transform:
  m_ObjectHideFlags: 0
  m_CorrespondingSourceObject: {fileID: 0}
  m_PrefabInstance: {fileID: 0}
  m_PrefabAsset: {fileID: 0}
  m_GameObject: {fileID: 4857853449737358264}
  m_LocalRotation: {x: 0, y: 0, z: 0, w: 1}
  m_LocalPosition: {x: 0, y: 0, z: 0}
  m_LocalScale: {x: 1, y: 1, z: 1}
  m_ConstrainProportionsScale: 0
  m_Children:
  - {fileID: 9214256481107722860}
  m_Father: {fileID: 0}
  m_RootOrder: 0
  m_LocalEulerAnglesHint: {x: 0, y: 0, z: 0}
--- !u!156049354 &5126340330538476937
Grid:
  m_ObjectHideFlags: 0
  m_CorrespondingSourceObject: {fileID: 0}
  m_PrefabInstance: {fileID: 0}
  m_PrefabAsset: {fileID: 0}
  m_GameObject: {fileID: 4857853449737358264}
  m_Enabled: 1
  m_CellSize: {x: 1, y: 1, z: 0}
  m_CellGap: {x: 0, y: 0, z: 0}
  m_CellLayout: 0
  m_CellSwizzle: 0
--- !u!1 &8799434412732546014
GameObject:
  m_ObjectHideFlags: 0
  m_CorrespondingSourceObject: {fileID: 0}
  m_PrefabInstance: {fileID: 0}
  m_PrefabAsset: {fileID: 0}
  serializedVersion: 6
  m_Component:
  - component: {fileID: 9214256481107722860}
  - component: {fileID: 6753903696902464578}
  - component: {fileID: 7937181573355036700}
  m_Layer: 0
  m_Name: Layer1
  m_TagString: Untagged
  m_Icon: {fileID: 0}
  m_NavMeshLayer: 0
  m_StaticEditorFlags: 0
  m_IsActive: 1
--- !u!4 &9214256481107722860
Transform:
  m_ObjectHideFlags: 0
  m_CorrespondingSourceObject: {fileID: 0}
  m_PrefabInstance: {fileID: 0}
  m_PrefabAsset: {fileID: 0}
  m_GameObject: {fileID: 8799434412732546014}
  m_LocalRotation: {x: -0, y: -0, z: -0, w: 1}
  m_LocalPosition: {x: 0, y: 0, z: 0}
  m_LocalScale: {x: 1, y: 1, z: 1}
  m_ConstrainProportionsScale: 0
  m_Children: []
  m_Father: {fileID: 5003504916848063476}
  m_RootOrder: 0
  m_LocalEulerAnglesHint: {x: 0, y: 0, z: 0}
--- !u!1839735485 &6753903696902464578
Tilemap:
  m_ObjectHideFlags: 0
  m_CorrespondingSourceObject: {fileID: 0}
  m_PrefabInstance: {fileID: 0}
  m_PrefabAsset: {fileID: 0}
  m_GameObject: {fileID: 8799434412732546014}
  m_Enabled: 1
  m_Tiles:
  - first: {x: -2, y: -15, z: 0}
    second:
      serializedVersion: 2
      m_TileIndex: 102
      m_TileSpriteIndex: 102
      m_TileMatrixIndex: 0
      m_TileColorIndex: 0
      m_TileObjectToInstantiateIndex: 65535
      dummyAlignment: 0
      m_AllTileFlags: 1073741825
  - first: {x: -1, y: -15, z: 0}
    second:
      serializedVersion: 2
      m_TileIndex: 103
      m_TileSpriteIndex: 103
      m_TileMatrixIndex: 0
      m_TileColorIndex: 0
      m_TileObjectToInstantiateIndex: 65535
      dummyAlignment: 0
      m_AllTileFlags: 1073741825
  - first: {x: 0, y: -15, z: 0}
    second:
      serializedVersion: 2
      m_TileIndex: 104
      m_TileSpriteIndex: 104
      m_TileMatrixIndex: 0
      m_TileColorIndex: 0
      m_TileObjectToInstantiateIndex: 65535
      dummyAlignment: 0
      m_AllTileFlags: 1073741825
  - first: {x: 1, y: -15, z: 0}
    second:
      serializedVersion: 2
      m_TileIndex: 105
      m_TileSpriteIndex: 105
      m_TileMatrixIndex: 0
      m_TileColorIndex: 0
      m_TileObjectToInstantiateIndex: 65535
      dummyAlignment: 0
      m_AllTileFlags: 1073741825
  - first: {x: 2, y: -15, z: 0}
    second:
      serializedVersion: 2
      m_TileIndex: 106
      m_TileSpriteIndex: 106
      m_TileMatrixIndex: 0
      m_TileColorIndex: 0
      m_TileObjectToInstantiateIndex: 65535
      dummyAlignment: 0
      m_AllTileFlags: 1073741825
  - first: {x: 3, y: -15, z: 0}
    second:
      serializedVersion: 2
      m_TileIndex: 107
      m_TileSpriteIndex: 107
      m_TileMatrixIndex: 0
      m_TileColorIndex: 0
      m_TileObjectToInstantiateIndex: 65535
      dummyAlignment: 0
      m_AllTileFlags: 1073741825
  - first: {x: -2, y: -14, z: 0}
    second:
      serializedVersion: 2
      m_TileIndex: 96
      m_TileSpriteIndex: 96
      m_TileMatrixIndex: 0
      m_TileColorIndex: 0
      m_TileObjectToInstantiateIndex: 65535
      dummyAlignment: 0
      m_AllTileFlags: 1073741825
  - first: {x: -1, y: -14, z: 0}
    second:
      serializedVersion: 2
      m_TileIndex: 97
      m_TileSpriteIndex: 97
      m_TileMatrixIndex: 0
      m_TileColorIndex: 0
      m_TileObjectToInstantiateIndex: 65535
      dummyAlignment: 0
      m_AllTileFlags: 1073741825
  - first: {x: 0, y: -14, z: 0}
    second:
      serializedVersion: 2
      m_TileIndex: 98
      m_TileSpriteIndex: 98
      m_TileMatrixIndex: 0
      m_TileColorIndex: 0
      m_TileObjectToInstantiateIndex: 65535
      dummyAlignment: 0
      m_AllTileFlags: 1073741825
  - first: {x: 1, y: -14, z: 0}
    second:
      serializedVersion: 2
      m_TileIndex: 99
      m_TileSpriteIndex: 99
      m_TileMatrixIndex: 0
      m_TileColorIndex: 0
      m_TileObjectToInstantiateIndex: 65535
      dummyAlignment: 0
      m_AllTileFlags: 1073741825
  - first: {x: 2, y: -14, z: 0}
    second:
      serializedVersion: 2
      m_TileIndex: 100
      m_TileSpriteIndex: 100
      m_TileMatrixIndex: 0
      m_TileColorIndex: 0
      m_TileObjectToInstantiateIndex: 65535
      dummyAlignment: 0
      m_AllTileFlags: 1073741825
  - first: {x: 3, y: -14, z: 0}
    second:
      serializedVersion: 2
      m_TileIndex: 101
      m_TileSpriteIndex: 101
      m_TileMatrixIndex: 0
      m_TileColorIndex: 0
      m_TileObjectToInstantiateIndex: 65535
      dummyAlignment: 0
      m_AllTileFlags: 1073741825
  - first: {x: -2, y: -13, z: 0}
    second:
      serializedVersion: 2
      m_TileIndex: 90
      m_TileSpriteIndex: 90
      m_TileMatrixIndex: 0
      m_TileColorIndex: 0
      m_TileObjectToInstantiateIndex: 65535
      dummyAlignment: 0
      m_AllTileFlags: 1073741825
  - first: {x: -1, y: -13, z: 0}
    second:
      serializedVersion: 2
      m_TileIndex: 91
      m_TileSpriteIndex: 91
      m_TileMatrixIndex: 0
      m_TileColorIndex: 0
      m_TileObjectToInstantiateIndex: 65535
      dummyAlignment: 0
      m_AllTileFlags: 1073741825
  - first: {x: 0, y: -13, z: 0}
    second:
      serializedVersion: 2
      m_TileIndex: 92
      m_TileSpriteIndex: 92
      m_TileMatrixIndex: 0
      m_TileColorIndex: 0
      m_TileObjectToInstantiateIndex: 65535
      dummyAlignment: 0
      m_AllTileFlags: 1073741825
  - first: {x: 1, y: -13, z: 0}
    second:
      serializedVersion: 2
      m_TileIndex: 93
      m_TileSpriteIndex: 93
      m_TileMatrixIndex: 0
      m_TileColorIndex: 0
      m_TileObjectToInstantiateIndex: 65535
      dummyAlignment: 0
      m_AllTileFlags: 1073741825
  - first: {x: 2, y: -13, z: 0}
    second:
      serializedVersion: 2
      m_TileIndex: 94
      m_TileSpriteIndex: 94
      m_TileMatrixIndex: 0
      m_TileColorIndex: 0
      m_TileObjectToInstantiateIndex: 65535
      dummyAlignment: 0
      m_AllTileFlags: 1073741825
  - first: {x: 3, y: -13, z: 0}
    second:
      serializedVersion: 2
      m_TileIndex: 95
      m_TileSpriteIndex: 95
      m_TileMatrixIndex: 0
      m_TileColorIndex: 0
      m_TileObjectToInstantiateIndex: 65535
      dummyAlignment: 0
      m_AllTileFlags: 1073741825
  - first: {x: -2, y: -12, z: 0}
    second:
      serializedVersion: 2
      m_TileIndex: 84
      m_TileSpriteIndex: 84
      m_TileMatrixIndex: 0
      m_TileColorIndex: 0
      m_TileObjectToInstantiateIndex: 65535
      dummyAlignment: 0
      m_AllTileFlags: 1073741825
  - first: {x: -1, y: -12, z: 0}
    second:
      serializedVersion: 2
      m_TileIndex: 85
      m_TileSpriteIndex: 85
      m_TileMatrixIndex: 0
      m_TileColorIndex: 0
      m_TileObjectToInstantiateIndex: 65535
      dummyAlignment: 0
      m_AllTileFlags: 1073741825
  - first: {x: 0, y: -12, z: 0}
    second:
      serializedVersion: 2
      m_TileIndex: 86
      m_TileSpriteIndex: 86
      m_TileMatrixIndex: 0
      m_TileColorIndex: 0
      m_TileObjectToInstantiateIndex: 65535
      dummyAlignment: 0
      m_AllTileFlags: 1073741825
  - first: {x: 1, y: -12, z: 0}
    second:
      serializedVersion: 2
      m_TileIndex: 87
      m_TileSpriteIndex: 87
      m_TileMatrixIndex: 0
      m_TileColorIndex: 0
      m_TileObjectToInstantiateIndex: 65535
      dummyAlignment: 0
      m_AllTileFlags: 1073741825
  - first: {x: 2, y: -12, z: 0}
    second:
      serializedVersion: 2
      m_TileIndex: 88
      m_TileSpriteIndex: 88
      m_TileMatrixIndex: 0
      m_TileColorIndex: 0
      m_TileObjectToInstantiateIndex: 65535
      dummyAlignment: 0
      m_AllTileFlags: 1073741825
  - first: {x: 3, y: -12, z: 0}
    second:
      serializedVersion: 2
      m_TileIndex: 89
      m_TileSpriteIndex: 89
      m_TileMatrixIndex: 0
      m_TileColorIndex: 0
      m_TileObjectToInstantiateIndex: 65535
      dummyAlignment: 0
      m_AllTileFlags: 1073741825
  - first: {x: -2, y: -11, z: 0}
    second:
      serializedVersion: 2
      m_TileIndex: 78
      m_TileSpriteIndex: 78
      m_TileMatrixIndex: 0
      m_TileColorIndex: 0
      m_TileObjectToInstantiateIndex: 65535
      dummyAlignment: 0
      m_AllTileFlags: 1073741825
  - first: {x: -1, y: -11, z: 0}
    second:
      serializedVersion: 2
      m_TileIndex: 79
      m_TileSpriteIndex: 79
      m_TileMatrixIndex: 0
      m_TileColorIndex: 0
      m_TileObjectToInstantiateIndex: 65535
      dummyAlignment: 0
      m_AllTileFlags: 1073741825
  - first: {x: 0, y: -11, z: 0}
    second:
      serializedVersion: 2
      m_TileIndex: 80
      m_TileSpriteIndex: 80
      m_TileMatrixIndex: 0
      m_TileColorIndex: 0
      m_TileObjectToInstantiateIndex: 65535
      dummyAlignment: 0
      m_AllTileFlags: 1073741825
  - first: {x: 1, y: -11, z: 0}
    second:
      serializedVersion: 2
      m_TileIndex: 81
      m_TileSpriteIndex: 81
      m_TileMatrixIndex: 0
      m_TileColorIndex: 0
      m_TileObjectToInstantiateIndex: 65535
      dummyAlignment: 0
      m_AllTileFlags: 1073741825
  - first: {x: 2, y: -11, z: 0}
    second:
      serializedVersion: 2
      m_TileIndex: 82
      m_TileSpriteIndex: 82
      m_TileMatrixIndex: 0
      m_TileColorIndex: 0
      m_TileObjectToInstantiateIndex: 65535
      dummyAlignment: 0
      m_AllTileFlags: 1073741825
  - first: {x: 3, y: -11, z: 0}
    second:
      serializedVersion: 2
      m_TileIndex: 83
      m_TileSpriteIndex: 83
      m_TileMatrixIndex: 0
      m_TileColorIndex: 0
      m_TileObjectToInstantiateIndex: 65535
      dummyAlignment: 0
      m_AllTileFlags: 1073741825
  - first: {x: -2, y: -10, z: 0}
    second:
      serializedVersion: 2
      m_TileIndex: 72
      m_TileSpriteIndex: 72
      m_TileMatrixIndex: 0
      m_TileColorIndex: 0
      m_TileObjectToInstantiateIndex: 65535
      dummyAlignment: 0
      m_AllTileFlags: 1073741825
  - first: {x: -1, y: -10, z: 0}
    second:
      serializedVersion: 2
      m_TileIndex: 73
      m_TileSpriteIndex: 73
      m_TileMatrixIndex: 0
      m_TileColorIndex: 0
      m_TileObjectToInstantiateIndex: 65535
      dummyAlignment: 0
      m_AllTileFlags: 1073741825
  - first: {x: 0, y: -10, z: 0}
    second:
      serializedVersion: 2
      m_TileIndex: 74
      m_TileSpriteIndex: 74
      m_TileMatrixIndex: 0
      m_TileColorIndex: 0
      m_TileObjectToInstantiateIndex: 65535
      dummyAlignment: 0
      m_AllTileFlags: 1073741825
  - first: {x: 1, y: -10, z: 0}
    second:
      serializedVersion: 2
      m_TileIndex: 75
      m_TileSpriteIndex: 75
      m_TileMatrixIndex: 0
      m_TileColorIndex: 0
      m_TileObjectToInstantiateIndex: 65535
      dummyAlignment: 0
      m_AllTileFlags: 1073741825
  - first: {x: 2, y: -10, z: 0}
    second:
      serializedVersion: 2
      m_TileIndex: 76
      m_TileSpriteIndex: 76
      m_TileMatrixIndex: 0
      m_TileColorIndex: 0
      m_TileObjectToInstantiateIndex: 65535
      dummyAlignment: 0
      m_AllTileFlags: 1073741825
  - first: {x: 3, y: -10, z: 0}
    second:
      serializedVersion: 2
      m_TileIndex: 77
      m_TileSpriteIndex: 77
      m_TileMatrixIndex: 0
      m_TileColorIndex: 0
      m_TileObjectToInstantiateIndex: 65535
      dummyAlignment: 0
      m_AllTileFlags: 1073741825
  - first: {x: -2, y: -9, z: 0}
    second:
      serializedVersion: 2
      m_TileIndex: 66
      m_TileSpriteIndex: 66
      m_TileMatrixIndex: 0
      m_TileColorIndex: 0
      m_TileObjectToInstantiateIndex: 65535
      dummyAlignment: 0
      m_AllTileFlags: 1073741825
  - first: {x: -1, y: -9, z: 0}
    second:
      serializedVersion: 2
      m_TileIndex: 67
      m_TileSpriteIndex: 67
      m_TileMatrixIndex: 0
      m_TileColorIndex: 0
      m_TileObjectToInstantiateIndex: 65535
      dummyAlignment: 0
      m_AllTileFlags: 1073741825
  - first: {x: 0, y: -9, z: 0}
    second:
      serializedVersion: 2
      m_TileIndex: 68
      m_TileSpriteIndex: 68
      m_TileMatrixIndex: 0
      m_TileColorIndex: 0
      m_TileObjectToInstantiateIndex: 65535
      dummyAlignment: 0
      m_AllTileFlags: 1073741825
  - first: {x: 1, y: -9, z: 0}
    second:
      serializedVersion: 2
      m_TileIndex: 69
      m_TileSpriteIndex: 69
      m_TileMatrixIndex: 0
      m_TileColorIndex: 0
      m_TileObjectToInstantiateIndex: 65535
      dummyAlignment: 0
      m_AllTileFlags: 1073741825
  - first: {x: 2, y: -9, z: 0}
    second:
      serializedVersion: 2
      m_TileIndex: 70
      m_TileSpriteIndex: 70
      m_TileMatrixIndex: 0
      m_TileColorIndex: 0
      m_TileObjectToInstantiateIndex: 65535
      dummyAlignment: 0
      m_AllTileFlags: 1073741825
  - first: {x: 3, y: -9, z: 0}
    second:
      serializedVersion: 2
      m_TileIndex: 71
      m_TileSpriteIndex: 71
      m_TileMatrixIndex: 0
      m_TileColorIndex: 0
      m_TileObjectToInstantiateIndex: 65535
      dummyAlignment: 0
      m_AllTileFlags: 1073741825
  - first: {x: -2, y: -8, z: 0}
    second:
      serializedVersion: 2
      m_TileIndex: 60
      m_TileSpriteIndex: 60
      m_TileMatrixIndex: 0
      m_TileColorIndex: 0
      m_TileObjectToInstantiateIndex: 65535
      dummyAlignment: 0
      m_AllTileFlags: 1073741825
  - first: {x: -1, y: -8, z: 0}
    second:
      serializedVersion: 2
      m_TileIndex: 61
      m_TileSpriteIndex: 61
      m_TileMatrixIndex: 0
      m_TileColorIndex: 0
      m_TileObjectToInstantiateIndex: 65535
      dummyAlignment: 0
      m_AllTileFlags: 1073741825
  - first: {x: 0, y: -8, z: 0}
    second:
      serializedVersion: 2
      m_TileIndex: 62
      m_TileSpriteIndex: 62
      m_TileMatrixIndex: 0
      m_TileColorIndex: 0
      m_TileObjectToInstantiateIndex: 65535
      dummyAlignment: 0
      m_AllTileFlags: 1073741825
  - first: {x: 1, y: -8, z: 0}
    second:
      serializedVersion: 2
      m_TileIndex: 63
      m_TileSpriteIndex: 63
      m_TileMatrixIndex: 0
      m_TileColorIndex: 0
      m_TileObjectToInstantiateIndex: 65535
      dummyAlignment: 0
      m_AllTileFlags: 1073741825
  - first: {x: 2, y: -8, z: 0}
    second:
      serializedVersion: 2
      m_TileIndex: 64
      m_TileSpriteIndex: 64
      m_TileMatrixIndex: 0
      m_TileColorIndex: 0
      m_TileObjectToInstantiateIndex: 65535
      dummyAlignment: 0
      m_AllTileFlags: 1073741825
  - first: {x: 3, y: -8, z: 0}
    second:
      serializedVersion: 2
      m_TileIndex: 65
      m_TileSpriteIndex: 65
      m_TileMatrixIndex: 0
      m_TileColorIndex: 0
      m_TileObjectToInstantiateIndex: 65535
      dummyAlignment: 0
      m_AllTileFlags: 1073741825
  - first: {x: -2, y: -7, z: 0}
    second:
      serializedVersion: 2
      m_TileIndex: 54
      m_TileSpriteIndex: 54
      m_TileMatrixIndex: 0
      m_TileColorIndex: 0
      m_TileObjectToInstantiateIndex: 65535
      dummyAlignment: 0
      m_AllTileFlags: 1073741825
  - first: {x: -1, y: -7, z: 0}
    second:
      serializedVersion: 2
      m_TileIndex: 55
      m_TileSpriteIndex: 55
      m_TileMatrixIndex: 0
      m_TileColorIndex: 0
      m_TileObjectToInstantiateIndex: 65535
      dummyAlignment: 0
      m_AllTileFlags: 1073741825
  - first: {x: 0, y: -7, z: 0}
    second:
      serializedVersion: 2
      m_TileIndex: 56
      m_TileSpriteIndex: 56
      m_TileMatrixIndex: 0
      m_TileColorIndex: 0
      m_TileObjectToInstantiateIndex: 65535
      dummyAlignment: 0
      m_AllTileFlags: 1073741825
  - first: {x: 1, y: -7, z: 0}
    second:
      serializedVersion: 2
      m_TileIndex: 57
      m_TileSpriteIndex: 57
      m_TileMatrixIndex: 0
      m_TileColorIndex: 0
      m_TileObjectToInstantiateIndex: 65535
      dummyAlignment: 0
      m_AllTileFlags: 1073741825
  - first: {x: 2, y: -7, z: 0}
    second:
      serializedVersion: 2
      m_TileIndex: 58
      m_TileSpriteIndex: 58
      m_TileMatrixIndex: 0
      m_TileColorIndex: 0
      m_TileObjectToInstantiateIndex: 65535
      dummyAlignment: 0
      m_AllTileFlags: 1073741825
  - first: {x: 3, y: -7, z: 0}
    second:
      serializedVersion: 2
      m_TileIndex: 59
      m_TileSpriteIndex: 59
      m_TileMatrixIndex: 0
      m_TileColorIndex: 0
      m_TileObjectToInstantiateIndex: 65535
      dummyAlignment: 0
      m_AllTileFlags: 1073741825
  - first: {x: -2, y: -6, z: 0}
    second:
      serializedVersion: 2
      m_TileIndex: 48
      m_TileSpriteIndex: 48
      m_TileMatrixIndex: 0
      m_TileColorIndex: 0
      m_TileObjectToInstantiateIndex: 65535
      dummyAlignment: 0
      m_AllTileFlags: 1073741825
  - first: {x: -1, y: -6, z: 0}
    second:
      serializedVersion: 2
      m_TileIndex: 49
      m_TileSpriteIndex: 49
      m_TileMatrixIndex: 0
      m_TileColorIndex: 0
      m_TileObjectToInstantiateIndex: 65535
      dummyAlignment: 0
      m_AllTileFlags: 1073741825
  - first: {x: 0, y: -6, z: 0}
    second:
      serializedVersion: 2
      m_TileIndex: 50
      m_TileSpriteIndex: 50
      m_TileMatrixIndex: 0
      m_TileColorIndex: 0
      m_TileObjectToInstantiateIndex: 65535
      dummyAlignment: 0
      m_AllTileFlags: 1073741825
  - first: {x: 1, y: -6, z: 0}
    second:
      serializedVersion: 2
      m_TileIndex: 51
      m_TileSpriteIndex: 51
      m_TileMatrixIndex: 0
      m_TileColorIndex: 0
      m_TileObjectToInstantiateIndex: 65535
      dummyAlignment: 0
      m_AllTileFlags: 1073741825
  - first: {x: 2, y: -6, z: 0}
    second:
      serializedVersion: 2
      m_TileIndex: 52
      m_TileSpriteIndex: 52
      m_TileMatrixIndex: 0
      m_TileColorIndex: 0
      m_TileObjectToInstantiateIndex: 65535
      dummyAlignment: 0
      m_AllTileFlags: 1073741825
  - first: {x: 3, y: -6, z: 0}
    second:
      serializedVersion: 2
      m_TileIndex: 53
      m_TileSpriteIndex: 53
      m_TileMatrixIndex: 0
      m_TileColorIndex: 0
      m_TileObjectToInstantiateIndex: 65535
      dummyAlignment: 0
      m_AllTileFlags: 1073741825
  - first: {x: -2, y: -5, z: 0}
    second:
      serializedVersion: 2
      m_TileIndex: 42
      m_TileSpriteIndex: 42
      m_TileMatrixIndex: 0
      m_TileColorIndex: 0
      m_TileObjectToInstantiateIndex: 65535
      dummyAlignment: 0
      m_AllTileFlags: 1073741825
  - first: {x: -1, y: -5, z: 0}
    second:
      serializedVersion: 2
      m_TileIndex: 43
      m_TileSpriteIndex: 43
      m_TileMatrixIndex: 0
      m_TileColorIndex: 0
      m_TileObjectToInstantiateIndex: 65535
      dummyAlignment: 0
      m_AllTileFlags: 1073741825
  - first: {x: 0, y: -5, z: 0}
    second:
      serializedVersion: 2
      m_TileIndex: 44
      m_TileSpriteIndex: 44
      m_TileMatrixIndex: 0
      m_TileColorIndex: 0
      m_TileObjectToInstantiateIndex: 65535
      dummyAlignment: 0
      m_AllTileFlags: 1073741825
  - first: {x: 1, y: -5, z: 0}
    second:
      serializedVersion: 2
      m_TileIndex: 45
      m_TileSpriteIndex: 45
      m_TileMatrixIndex: 0
      m_TileColorIndex: 0
      m_TileObjectToInstantiateIndex: 65535
      dummyAlignment: 0
      m_AllTileFlags: 1073741825
  - first: {x: 2, y: -5, z: 0}
    second:
      serializedVersion: 2
      m_TileIndex: 46
      m_TileSpriteIndex: 46
      m_TileMatrixIndex: 0
      m_TileColorIndex: 0
      m_TileObjectToInstantiateIndex: 65535
      dummyAlignment: 0
      m_AllTileFlags: 1073741825
  - first: {x: 3, y: -5, z: 0}
    second:
      serializedVersion: 2
      m_TileIndex: 47
      m_TileSpriteIndex: 47
      m_TileMatrixIndex: 0
      m_TileColorIndex: 0
      m_TileObjectToInstantiateIndex: 65535
      dummyAlignment: 0
      m_AllTileFlags: 1073741825
  - first: {x: -2, y: -4, z: 0}
    second:
      serializedVersion: 2
      m_TileIndex: 36
      m_TileSpriteIndex: 36
      m_TileMatrixIndex: 0
      m_TileColorIndex: 0
      m_TileObjectToInstantiateIndex: 65535
      dummyAlignment: 0
      m_AllTileFlags: 1073741825
  - first: {x: -1, y: -4, z: 0}
    second:
      serializedVersion: 2
      m_TileIndex: 37
      m_TileSpriteIndex: 37
      m_TileMatrixIndex: 0
      m_TileColorIndex: 0
      m_TileObjectToInstantiateIndex: 65535
      dummyAlignment: 0
      m_AllTileFlags: 1073741825
  - first: {x: 0, y: -4, z: 0}
    second:
      serializedVersion: 2
      m_TileIndex: 38
      m_TileSpriteIndex: 38
      m_TileMatrixIndex: 0
      m_TileColorIndex: 0
      m_TileObjectToInstantiateIndex: 65535
      dummyAlignment: 0
      m_AllTileFlags: 1073741825
  - first: {x: 1, y: -4, z: 0}
    second:
      serializedVersion: 2
      m_TileIndex: 39
      m_TileSpriteIndex: 39
      m_TileMatrixIndex: 0
      m_TileColorIndex: 0
      m_TileObjectToInstantiateIndex: 65535
      dummyAlignment: 0
      m_AllTileFlags: 1073741825
  - first: {x: 2, y: -4, z: 0}
    second:
      serializedVersion: 2
      m_TileIndex: 40
      m_TileSpriteIndex: 40
      m_TileMatrixIndex: 0
      m_TileColorIndex: 0
      m_TileObjectToInstantiateIndex: 65535
      dummyAlignment: 0
      m_AllTileFlags: 1073741825
  - first: {x: 3, y: -4, z: 0}
    second:
      serializedVersion: 2
      m_TileIndex: 41
      m_TileSpriteIndex: 41
      m_TileMatrixIndex: 0
      m_TileColorIndex: 0
      m_TileObjectToInstantiateIndex: 65535
      dummyAlignment: 0
      m_AllTileFlags: 1073741825
  - first: {x: -2, y: -3, z: 0}
    second:
      serializedVersion: 2
      m_TileIndex: 30
      m_TileSpriteIndex: 30
      m_TileMatrixIndex: 0
      m_TileColorIndex: 0
      m_TileObjectToInstantiateIndex: 65535
      dummyAlignment: 0
      m_AllTileFlags: 1073741825
  - first: {x: -1, y: -3, z: 0}
    second:
      serializedVersion: 2
      m_TileIndex: 31
      m_TileSpriteIndex: 31
      m_TileMatrixIndex: 0
      m_TileColorIndex: 0
      m_TileObjectToInstantiateIndex: 65535
      dummyAlignment: 0
      m_AllTileFlags: 1073741825
  - first: {x: 0, y: -3, z: 0}
    second:
      serializedVersion: 2
      m_TileIndex: 32
      m_TileSpriteIndex: 32
      m_TileMatrixIndex: 0
      m_TileColorIndex: 0
      m_TileObjectToInstantiateIndex: 65535
      dummyAlignment: 0
      m_AllTileFlags: 1073741825
  - first: {x: 1, y: -3, z: 0}
    second:
      serializedVersion: 2
      m_TileIndex: 33
      m_TileSpriteIndex: 33
      m_TileMatrixIndex: 0
      m_TileColorIndex: 0
      m_TileObjectToInstantiateIndex: 65535
      dummyAlignment: 0
      m_AllTileFlags: 1073741825
  - first: {x: 2, y: -3, z: 0}
    second:
      serializedVersion: 2
      m_TileIndex: 34
      m_TileSpriteIndex: 34
      m_TileMatrixIndex: 0
      m_TileColorIndex: 0
      m_TileObjectToInstantiateIndex: 65535
      dummyAlignment: 0
      m_AllTileFlags: 1073741825
  - first: {x: 3, y: -3, z: 0}
    second:
      serializedVersion: 2
      m_TileIndex: 35
      m_TileSpriteIndex: 35
      m_TileMatrixIndex: 0
      m_TileColorIndex: 0
      m_TileObjectToInstantiateIndex: 65535
      dummyAlignment: 0
      m_AllTileFlags: 1073741825
  - first: {x: -2, y: -2, z: 0}
    second:
      serializedVersion: 2
      m_TileIndex: 24
      m_TileSpriteIndex: 24
      m_TileMatrixIndex: 0
      m_TileColorIndex: 0
      m_TileObjectToInstantiateIndex: 65535
      dummyAlignment: 0
      m_AllTileFlags: 1073741825
  - first: {x: -1, y: -2, z: 0}
    second:
      serializedVersion: 2
      m_TileIndex: 25
      m_TileSpriteIndex: 25
      m_TileMatrixIndex: 0
      m_TileColorIndex: 0
      m_TileObjectToInstantiateIndex: 65535
      dummyAlignment: 0
      m_AllTileFlags: 1073741825
  - first: {x: 0, y: -2, z: 0}
    second:
      serializedVersion: 2
      m_TileIndex: 26
      m_TileSpriteIndex: 26
      m_TileMatrixIndex: 0
      m_TileColorIndex: 0
      m_TileObjectToInstantiateIndex: 65535
      dummyAlignment: 0
      m_AllTileFlags: 1073741825
  - first: {x: 1, y: -2, z: 0}
    second:
      serializedVersion: 2
      m_TileIndex: 27
      m_TileSpriteIndex: 27
      m_TileMatrixIndex: 0
      m_TileColorIndex: 0
      m_TileObjectToInstantiateIndex: 65535
      dummyAlignment: 0
      m_AllTileFlags: 1073741825
  - first: {x: 2, y: -2, z: 0}
    second:
      serializedVersion: 2
      m_TileIndex: 28
      m_TileSpriteIndex: 28
      m_TileMatrixIndex: 0
      m_TileColorIndex: 0
      m_TileObjectToInstantiateIndex: 65535
      dummyAlignment: 0
      m_AllTileFlags: 1073741825
  - first: {x: 3, y: -2, z: 0}
    second:
      serializedVersion: 2
      m_TileIndex: 29
      m_TileSpriteIndex: 29
      m_TileMatrixIndex: 0
      m_TileColorIndex: 0
      m_TileObjectToInstantiateIndex: 65535
      dummyAlignment: 0
      m_AllTileFlags: 1073741825
  - first: {x: -2, y: -1, z: 0}
    second:
      serializedVersion: 2
      m_TileIndex: 18
      m_TileSpriteIndex: 18
      m_TileMatrixIndex: 0
      m_TileColorIndex: 0
      m_TileObjectToInstantiateIndex: 65535
      dummyAlignment: 0
      m_AllTileFlags: 1073741825
  - first: {x: -1, y: -1, z: 0}
    second:
      serializedVersion: 2
      m_TileIndex: 19
      m_TileSpriteIndex: 19
      m_TileMatrixIndex: 0
      m_TileColorIndex: 0
      m_TileObjectToInstantiateIndex: 65535
      dummyAlignment: 0
      m_AllTileFlags: 1073741825
  - first: {x: 0, y: -1, z: 0}
    second:
      serializedVersion: 2
      m_TileIndex: 20
      m_TileSpriteIndex: 20
      m_TileMatrixIndex: 0
      m_TileColorIndex: 0
      m_TileObjectToInstantiateIndex: 65535
      dummyAlignment: 0
      m_AllTileFlags: 1073741825
  - first: {x: 1, y: -1, z: 0}
    second:
      serializedVersion: 2
      m_TileIndex: 21
      m_TileSpriteIndex: 21
      m_TileMatrixIndex: 0
      m_TileColorIndex: 0
      m_TileObjectToInstantiateIndex: 65535
      dummyAlignment: 0
      m_AllTileFlags: 1073741825
  - first: {x: 2, y: -1, z: 0}
    second:
      serializedVersion: 2
      m_TileIndex: 22
      m_TileSpriteIndex: 22
      m_TileMatrixIndex: 0
      m_TileColorIndex: 0
      m_TileObjectToInstantiateIndex: 65535
      dummyAlignment: 0
      m_AllTileFlags: 1073741825
  - first: {x: 3, y: -1, z: 0}
    second:
      serializedVersion: 2
      m_TileIndex: 23
      m_TileSpriteIndex: 23
      m_TileMatrixIndex: 0
      m_TileColorIndex: 0
      m_TileObjectToInstantiateIndex: 65535
      dummyAlignment: 0
      m_AllTileFlags: 1073741825
  - first: {x: -2, y: 0, z: 0}
    second:
      serializedVersion: 2
      m_TileIndex: 12
      m_TileSpriteIndex: 12
      m_TileMatrixIndex: 0
      m_TileColorIndex: 0
      m_TileObjectToInstantiateIndex: 65535
      dummyAlignment: 0
      m_AllTileFlags: 1073741825
  - first: {x: -1, y: 0, z: 0}
    second:
      serializedVersion: 2
      m_TileIndex: 13
      m_TileSpriteIndex: 13
      m_TileMatrixIndex: 0
      m_TileColorIndex: 0
      m_TileObjectToInstantiateIndex: 65535
      dummyAlignment: 0
      m_AllTileFlags: 1073741825
  - first: {x: 0, y: 0, z: 0}
    second:
      serializedVersion: 2
      m_TileIndex: 14
      m_TileSpriteIndex: 14
      m_TileMatrixIndex: 0
      m_TileColorIndex: 0
      m_TileObjectToInstantiateIndex: 65535
      dummyAlignment: 0
      m_AllTileFlags: 1073741825
  - first: {x: 1, y: 0, z: 0}
    second:
      serializedVersion: 2
      m_TileIndex: 15
      m_TileSpriteIndex: 15
      m_TileMatrixIndex: 0
      m_TileColorIndex: 0
      m_TileObjectToInstantiateIndex: 65535
      dummyAlignment: 0
      m_AllTileFlags: 1073741825
  - first: {x: 2, y: 0, z: 0}
    second:
      serializedVersion: 2
      m_TileIndex: 16
      m_TileSpriteIndex: 16
      m_TileMatrixIndex: 0
      m_TileColorIndex: 0
      m_TileObjectToInstantiateIndex: 65535
      dummyAlignment: 0
      m_AllTileFlags: 1073741825
  - first: {x: 3, y: 0, z: 0}
    second:
      serializedVersion: 2
      m_TileIndex: 17
      m_TileSpriteIndex: 17
      m_TileMatrixIndex: 0
      m_TileColorIndex: 0
      m_TileObjectToInstantiateIndex: 65535
      dummyAlignment: 0
      m_AllTileFlags: 1073741825
  - first: {x: -2, y: 1, z: 0}
    second:
      serializedVersion: 2
      m_TileIndex: 6
      m_TileSpriteIndex: 6
      m_TileMatrixIndex: 0
      m_TileColorIndex: 0
      m_TileObjectToInstantiateIndex: 65535
      dummyAlignment: 0
      m_AllTileFlags: 1073741825
  - first: {x: -1, y: 1, z: 0}
    second:
      serializedVersion: 2
      m_TileIndex: 7
      m_TileSpriteIndex: 7
      m_TileMatrixIndex: 0
      m_TileColorIndex: 0
      m_TileObjectToInstantiateIndex: 65535
      dummyAlignment: 0
      m_AllTileFlags: 1073741825
  - first: {x: 0, y: 1, z: 0}
    second:
      serializedVersion: 2
      m_TileIndex: 8
      m_TileSpriteIndex: 8
      m_TileMatrixIndex: 0
      m_TileColorIndex: 0
      m_TileObjectToInstantiateIndex: 65535
      dummyAlignment: 0
      m_AllTileFlags: 1073741825
  - first: {x: 1, y: 1, z: 0}
    second:
      serializedVersion: 2
      m_TileIndex: 9
      m_TileSpriteIndex: 9
      m_TileMatrixIndex: 0
      m_TileColorIndex: 0
      m_TileObjectToInstantiateIndex: 65535
      dummyAlignment: 0
      m_AllTileFlags: 1073741825
  - first: {x: 2, y: 1, z: 0}
    second:
      serializedVersion: 2
      m_TileIndex: 10
      m_TileSpriteIndex: 10
      m_TileMatrixIndex: 0
      m_TileColorIndex: 0
      m_TileObjectToInstantiateIndex: 65535
      dummyAlignment: 0
      m_AllTileFlags: 1073741825
  - first: {x: 3, y: 1, z: 0}
    second:
      serializedVersion: 2
      m_TileIndex: 11
      m_TileSpriteIndex: 11
      m_TileMatrixIndex: 0
      m_TileColorIndex: 0
      m_TileObjectToInstantiateIndex: 65535
      dummyAlignment: 0
      m_AllTileFlags: 1073741825
  - first: {x: -2, y: 2, z: 0}
    second:
      serializedVersion: 2
      m_TileIndex: 0
      m_TileSpriteIndex: 0
      m_TileMatrixIndex: 0
      m_TileColorIndex: 0
      m_TileObjectToInstantiateIndex: 65535
      dummyAlignment: 0
      m_AllTileFlags: 1073741825
  - first: {x: -1, y: 2, z: 0}
    second:
      serializedVersion: 2
      m_TileIndex: 1
      m_TileSpriteIndex: 1
      m_TileMatrixIndex: 0
      m_TileColorIndex: 0
      m_TileObjectToInstantiateIndex: 65535
      dummyAlignment: 0
      m_AllTileFlags: 1073741825
  - first: {x: 0, y: 2, z: 0}
    second:
      serializedVersion: 2
      m_TileIndex: 2
      m_TileSpriteIndex: 2
      m_TileMatrixIndex: 0
      m_TileColorIndex: 0
      m_TileObjectToInstantiateIndex: 65535
      dummyAlignment: 0
      m_AllTileFlags: 1073741825
  - first: {x: 1, y: 2, z: 0}
    second:
      serializedVersion: 2
      m_TileIndex: 3
      m_TileSpriteIndex: 3
      m_TileMatrixIndex: 0
      m_TileColorIndex: 0
      m_TileObjectToInstantiateIndex: 65535
      dummyAlignment: 0
      m_AllTileFlags: 1073741825
  - first: {x: 2, y: 2, z: 0}
    second:
      serializedVersion: 2
      m_TileIndex: 4
      m_TileSpriteIndex: 4
      m_TileMatrixIndex: 0
      m_TileColorIndex: 0
      m_TileObjectToInstantiateIndex: 65535
      dummyAlignment: 0
      m_AllTileFlags: 1073741825
  - first: {x: 3, y: 2, z: 0}
    second:
      serializedVersion: 2
      m_TileIndex: 5
      m_TileSpriteIndex: 5
      m_TileMatrixIndex: 0
      m_TileColorIndex: 0
      m_TileObjectToInstantiateIndex: 65535
      dummyAlignment: 0
      m_AllTileFlags: 1073741825
  m_AnimatedTiles: {}
  m_TileAssetArray:
  - m_RefCount: 1
    m_Data: {fileID: 11400000, guid: 70300c93617e939488c855ead3423a5d, type: 2}
  - m_RefCount: 1
    m_Data: {fileID: 11400000, guid: b7acd21497d7c1e4ca7091dc8e73622f, type: 2}
  - m_RefCount: 1
    m_Data: {fileID: 11400000, guid: ea225834c40763c4bae9343cf4c252ae, type: 2}
  - m_RefCount: 1
    m_Data: {fileID: 11400000, guid: 90672e36e6f081e40b26bee718cb4cd5, type: 2}
  - m_RefCount: 1
    m_Data: {fileID: 11400000, guid: 12071a949503d264cabf8b1f834fcf89, type: 2}
  - m_RefCount: 1
    m_Data: {fileID: 11400000, guid: 91d7a6c82d18a5a4687110f781e9dbf3, type: 2}
  - m_RefCount: 1
    m_Data: {fileID: 11400000, guid: e99508e029fd8954bbd29c3f00dc9f66, type: 2}
  - m_RefCount: 1
    m_Data: {fileID: 11400000, guid: 49564fc275564a2488d668e5b2595992, type: 2}
  - m_RefCount: 1
    m_Data: {fileID: 11400000, guid: 46265bd87d34f654981288f231ccefbc, type: 2}
  - m_RefCount: 1
    m_Data: {fileID: 11400000, guid: f7a4e506a22c8504b8b3b0c4376aeb4d, type: 2}
  - m_RefCount: 1
    m_Data: {fileID: 11400000, guid: 14954b6963bcb404baab8ccf4176c2f6, type: 2}
  - m_RefCount: 1
    m_Data: {fileID: 11400000, guid: 648d92bf7d1587148b3f128323d43f89, type: 2}
  - m_RefCount: 1
    m_Data: {fileID: 11400000, guid: 6cc701db72606c74492a76f5e3708930, type: 2}
  - m_RefCount: 1
    m_Data: {fileID: 11400000, guid: 1ea71b39c4eb6e341a31e7b121b0db5c, type: 2}
  - m_RefCount: 1
    m_Data: {fileID: 11400000, guid: 4b6fdc0e2f73db3418c83e9bcdf2e516, type: 2}
  - m_RefCount: 1
    m_Data: {fileID: 11400000, guid: d54adff31fa05094cb2bb7ae9a145e53, type: 2}
  - m_RefCount: 1
    m_Data: {fileID: 11400000, guid: e9a1db7cd0285d64d91490f6a3c7993e, type: 2}
  - m_RefCount: 1
    m_Data: {fileID: 11400000, guid: 13a28c7174daa0e439739a30ffad8b4d, type: 2}
  - m_RefCount: 1
    m_Data: {fileID: 11400000, guid: 4106ce8939d8871499d2cde99c2f4dcc, type: 2}
  - m_RefCount: 1
    m_Data: {fileID: 11400000, guid: 97549367ca1b4f34fbff4e6c73ed0965, type: 2}
  - m_RefCount: 1
    m_Data: {fileID: 11400000, guid: de3318d35b0a8294e804740d493fe7fd, type: 2}
  - m_RefCount: 1
    m_Data: {fileID: 11400000, guid: 70acb3283b1dfab45b89ab506270988f, type: 2}
  - m_RefCount: 1
    m_Data: {fileID: 11400000, guid: 7a11ca8d1f4ebbd429de883654c0b343, type: 2}
  - m_RefCount: 1
    m_Data: {fileID: 11400000, guid: 33a2df14cd3df3d4e84dad8847c7a4af, type: 2}
  - m_RefCount: 1
    m_Data: {fileID: 11400000, guid: dffae15964f406e48a83c71b7e545e53, type: 2}
  - m_RefCount: 1
    m_Data: {fileID: 11400000, guid: 25ec939601244024fa74819b02aecd62, type: 2}
  - m_RefCount: 1
    m_Data: {fileID: 11400000, guid: d8f4c6cd43fde6e42b97489ab396332e, type: 2}
  - m_RefCount: 1
    m_Data: {fileID: 11400000, guid: 2c42c1ba92fa1ed478118b9329aa1079, type: 2}
  - m_RefCount: 1
    m_Data: {fileID: 11400000, guid: 244a2aa8c8e756249a5dfd401c719a40, type: 2}
  - m_RefCount: 1
    m_Data: {fileID: 11400000, guid: 9eefe602e1964e841865586877d0d568, type: 2}
  - m_RefCount: 1
    m_Data: {fileID: 11400000, guid: 7d0c21acde8ade54f996bf226d0d1726, type: 2}
  - m_RefCount: 1
    m_Data: {fileID: 11400000, guid: b0f7890ff39c54345b26680e91720741, type: 2}
  - m_RefCount: 1
    m_Data: {fileID: 11400000, guid: 9d7e6a8a19359044bb658452ffd584fd, type: 2}
  - m_RefCount: 1
    m_Data: {fileID: 11400000, guid: aa61c1fe46e0f8141b6d10294c7e0e2b, type: 2}
  - m_RefCount: 1
    m_Data: {fileID: 11400000, guid: b59cb1bafbe527c4eb6dfceaedd2d85d, type: 2}
  - m_RefCount: 1
    m_Data: {fileID: 11400000, guid: 26bdb8dcf9887dd48b481a17b5a12e04, type: 2}
  - m_RefCount: 1
    m_Data: {fileID: 11400000, guid: c4656a924b873b74692bcb2f8ecad1c1, type: 2}
  - m_RefCount: 1
    m_Data: {fileID: 11400000, guid: d18e1d72863331c45b184ef218512e78, type: 2}
  - m_RefCount: 1
    m_Data: {fileID: 11400000, guid: b26c79f4aed0de148b0eda722091cfae, type: 2}
  - m_RefCount: 1
    m_Data: {fileID: 11400000, guid: 58fb4b03bb6e6154da2fa9dd472a8a06, type: 2}
  - m_RefCount: 1
    m_Data: {fileID: 11400000, guid: cf71f061cad987d4da5b9bf519cc1e92, type: 2}
  - m_RefCount: 1
    m_Data: {fileID: 11400000, guid: 269e93cb57d4a93408d081ff3e9a6dcc, type: 2}
  - m_RefCount: 1
    m_Data: {fileID: 11400000, guid: 2cf88f0094341fa4d9292851fe8bc26f, type: 2}
  - m_RefCount: 1
    m_Data: {fileID: 11400000, guid: 2cfca241be8ca1d4cb6a21d287c2acbb, type: 2}
  - m_RefCount: 1
    m_Data: {fileID: 11400000, guid: be2c3314cb2f76f4f90abdecab2263c9, type: 2}
  - m_RefCount: 1
    m_Data: {fileID: 11400000, guid: da3b16861e6cac34e9f81d22263706cd, type: 2}
  - m_RefCount: 1
    m_Data: {fileID: 11400000, guid: d1e3d7dc9b3d12742bf7c5a5d59cb16a, type: 2}
  - m_RefCount: 1
    m_Data: {fileID: 11400000, guid: 8023f21c2a5e30d43b7814616ada4e93, type: 2}
  - m_RefCount: 1
    m_Data: {fileID: 11400000, guid: f9be9cd7f7ad39948a93a174920a470d, type: 2}
  - m_RefCount: 1
    m_Data: {fileID: 11400000, guid: 19911659f323a6244a9f284c8b6b307c, type: 2}
  - m_RefCount: 1
    m_Data: {fileID: 11400000, guid: 619974cf8c041de4f9086484f77125ad, type: 2}
  - m_RefCount: 1
    m_Data: {fileID: 11400000, guid: be327eeba00b1c44e9b4588721855907, type: 2}
  - m_RefCount: 1
    m_Data: {fileID: 11400000, guid: 0f7fad0fa7191064bb847956a7728afd, type: 2}
  - m_RefCount: 1
    m_Data: {fileID: 11400000, guid: c1ba5df0aed9a1c4ca70f502a63a28f0, type: 2}
  - m_RefCount: 1
    m_Data: {fileID: 11400000, guid: eb5dd0eb93448fb4e90c714d7f81f0ba, type: 2}
  - m_RefCount: 1
    m_Data: {fileID: 11400000, guid: 3cba4b5981b744a4f8d631cbdc93b662, type: 2}
  - m_RefCount: 1
    m_Data: {fileID: 11400000, guid: e6356baeb7f31e44885614bc8d1b4134, type: 2}
  - m_RefCount: 1
    m_Data: {fileID: 11400000, guid: d2898e4d879f83f4f820c6de021a85e1, type: 2}
  - m_RefCount: 1
    m_Data: {fileID: 11400000, guid: ca21899cb46e03a4a88e2bde1dfed729, type: 2}
  - m_RefCount: 1
    m_Data: {fileID: 11400000, guid: 638ca3157eee0334787f52d595c9ed08, type: 2}
  - m_RefCount: 1
    m_Data: {fileID: 11400000, guid: ca530624144361944ad604331d572e27, type: 2}
  - m_RefCount: 1
    m_Data: {fileID: 11400000, guid: 2d8757693a919e348a3f731708c90f88, type: 2}
  - m_RefCount: 1
    m_Data: {fileID: 11400000, guid: 96aee420bcec8384fac403de56db5cca, type: 2}
  - m_RefCount: 1
    m_Data: {fileID: 11400000, guid: 055ae8079bb7c7f438809914341ccd81, type: 2}
  - m_RefCount: 1
    m_Data: {fileID: 11400000, guid: 53ab9fcd20f51cb429b03f5517fe5849, type: 2}
  - m_RefCount: 1
    m_Data: {fileID: 11400000, guid: 5f56a2cbf342b6f4fb1aa494d80770d5, type: 2}
  - m_RefCount: 1
    m_Data: {fileID: 11400000, guid: 27aeef4ddb2c80d499e7a67064f4ef12, type: 2}
  - m_RefCount: 1
    m_Data: {fileID: 11400000, guid: 54de31f699e045845a0c84da2084b950, type: 2}
  - m_RefCount: 1
    m_Data: {fileID: 11400000, guid: cbc8d1f31bb35c64387d337bffde4f04, type: 2}
  - m_RefCount: 1
    m_Data: {fileID: 11400000, guid: 5e9a67f2275b27f428cde3fd97bed4d0, type: 2}
  - m_RefCount: 1
    m_Data: {fileID: 11400000, guid: fcd32255f4b889b45b2680980616535e, type: 2}
  - m_RefCount: 1
    m_Data: {fileID: 11400000, guid: 2d0ccb2f4c6919b4e80b155bccb94c95, type: 2}
  - m_RefCount: 1
    m_Data: {fileID: 11400000, guid: 2133fb0e0ae11714ea93eb65929377c4, type: 2}
  - m_RefCount: 1
    m_Data: {fileID: 11400000, guid: 3be417d4fd0835d48a19db09eab3fc2f, type: 2}
  - m_RefCount: 1
    m_Data: {fileID: 11400000, guid: 0c167d1004109e2408befcc3949cc93e, type: 2}
  - m_RefCount: 1
    m_Data: {fileID: 11400000, guid: e6a484c0b8238a646a95fa0273425e74, type: 2}
  - m_RefCount: 1
    m_Data: {fileID: 11400000, guid: 4a32ae309915a004bbde12dd6db01e6b, type: 2}
  - m_RefCount: 1
    m_Data: {fileID: 11400000, guid: 1963219adcb02694fab313bf4772598e, type: 2}
  - m_RefCount: 1
    m_Data: {fileID: 11400000, guid: a738e0b175ced144280b5b1315028335, type: 2}
  - m_RefCount: 1
    m_Data: {fileID: 11400000, guid: de8ed3062fe1d3c47bcaadd5f51a2502, type: 2}
  - m_RefCount: 1
    m_Data: {fileID: 11400000, guid: 5af1b33422b74244d93f83a1a631b52a, type: 2}
  - m_RefCount: 1
    m_Data: {fileID: 11400000, guid: d3c7e7eeef8926940ad13c8d26eaf6aa, type: 2}
  - m_RefCount: 1
    m_Data: {fileID: 11400000, guid: 4588a04eece6c5b4fbf482c6af635d37, type: 2}
  - m_RefCount: 1
    m_Data: {fileID: 11400000, guid: b41092e38a11e5c4b9b8d6f1806d5df8, type: 2}
  - m_RefCount: 1
    m_Data: {fileID: 11400000, guid: 7116c66ae33f7dd4d800a5c3bb5052f4, type: 2}
  - m_RefCount: 1
    m_Data: {fileID: 11400000, guid: 87a612d7cb1609e458e254663ff31efc, type: 2}
  - m_RefCount: 1
    m_Data: {fileID: 11400000, guid: 0110602fd9a6c764d8eae32a131a6134, type: 2}
  - m_RefCount: 1
    m_Data: {fileID: 11400000, guid: 3acd7c57f3f565b4393adf5fabd05950, type: 2}
  - m_RefCount: 1
    m_Data: {fileID: 11400000, guid: bb5127f3f9cbd164d91f3f84db9010c8, type: 2}
  - m_RefCount: 1
    m_Data: {fileID: 11400000, guid: 33fd4691bc6bd7a419ec301019744074, type: 2}
  - m_RefCount: 1
    m_Data: {fileID: 11400000, guid: 8f41e3c0f6f546446a983883b7d7bfe9, type: 2}
  - m_RefCount: 1
    m_Data: {fileID: 11400000, guid: b410fed191d8f2f4c991cf0ad2ce80e6, type: 2}
  - m_RefCount: 1
    m_Data: {fileID: 11400000, guid: fe726d04d1724ea4ea2561c92d8b8460, type: 2}
  - m_RefCount: 1
    m_Data: {fileID: 11400000, guid: 818f454c75643384ebca170fbf2288eb, type: 2}
  - m_RefCount: 1
    m_Data: {fileID: 11400000, guid: 63195918884d421448b5a3c9e8639907, type: 2}
  - m_RefCount: 1
    m_Data: {fileID: 11400000, guid: 97f8d2d2f3c385d48984eb1585b03505, type: 2}
  - m_RefCount: 1
    m_Data: {fileID: 11400000, guid: 28a6bcdbd62673b4aa77eaf3d0d6b558, type: 2}
  - m_RefCount: 1
    m_Data: {fileID: 11400000, guid: b1722f61f40522e44b896db7778856e1, type: 2}
  - m_RefCount: 1
    m_Data: {fileID: 11400000, guid: fa2fb31cc96bcb049a66f54e21226ff6, type: 2}
  - m_RefCount: 1
    m_Data: {fileID: 11400000, guid: 4fcf20c5e275d4d44b210c72df13b395, type: 2}
  - m_RefCount: 1
    m_Data: {fileID: 11400000, guid: 23ecd61e868177d449cac6719d694134, type: 2}
  - m_RefCount: 1
    m_Data: {fileID: 11400000, guid: 4668e39e92ae1724881f89cdafcce5c7, type: 2}
  - m_RefCount: 1
    m_Data: {fileID: 11400000, guid: 89d1ef8e116b7094d865d26281b98151, type: 2}
  - m_RefCount: 1
    m_Data: {fileID: 11400000, guid: 453e0b641ff3f6844bfea8f9f9bed969, type: 2}
  - m_RefCount: 1
    m_Data: {fileID: 11400000, guid: ee2a1cce5a7ca544580a714eaa1e1f0e, type: 2}
  - m_RefCount: 1
    m_Data: {fileID: 11400000, guid: ac663fcdced85e246b34a2e1f9e6dedd, type: 2}
  - m_RefCount: 1
    m_Data: {fileID: 11400000, guid: 7ac94938ac1c32742b4617767fd72da7, type: 2}
  - m_RefCount: 1
    m_Data: {fileID: 11400000, guid: cce8690e76b6ec045a540e310a711e5a, type: 2}
  m_TileSpriteArray:
  - m_RefCount: 1
    m_Data: {fileID: 1508111646, guid: 1a1ec744dea291544aa0120d9f144e27, type: 3}
  - m_RefCount: 1
    m_Data: {fileID: -1646770920, guid: 1a1ec744dea291544aa0120d9f144e27, type: 3}
  - m_RefCount: 1
    m_Data: {fileID: 465994556, guid: 1a1ec744dea291544aa0120d9f144e27, type: 3}
  - m_RefCount: 1
    m_Data: {fileID: -1434563222, guid: 1a1ec744dea291544aa0120d9f144e27, type: 3}
  - m_RefCount: 1
    m_Data: {fileID: -1115443060, guid: 1a1ec744dea291544aa0120d9f144e27, type: 3}
  - m_RefCount: 1
    m_Data: {fileID: -1058025743, guid: 1a1ec744dea291544aa0120d9f144e27, type: 3}
  - m_RefCount: 1
    m_Data: {fileID: -810861028, guid: 1a1ec744dea291544aa0120d9f144e27, type: 3}
  - m_RefCount: 1
    m_Data: {fileID: 1438089200, guid: 1a1ec744dea291544aa0120d9f144e27, type: 3}
  - m_RefCount: 1
    m_Data: {fileID: -2067672206, guid: 1a1ec744dea291544aa0120d9f144e27, type: 3}
  - m_RefCount: 1
    m_Data: {fileID: 298348213, guid: 1a1ec744dea291544aa0120d9f144e27, type: 3}
  - m_RefCount: 1
    m_Data: {fileID: 174798425, guid: 1a1ec744dea291544aa0120d9f144e27, type: 3}
  - m_RefCount: 1
    m_Data: {fileID: -2034025162, guid: 1a1ec744dea291544aa0120d9f144e27, type: 3}
  - m_RefCount: 1
    m_Data: {fileID: 1288739200, guid: 1a1ec744dea291544aa0120d9f144e27, type: 3}
  - m_RefCount: 1
    m_Data: {fileID: 54267354, guid: 1a1ec744dea291544aa0120d9f144e27, type: 3}
  - m_RefCount: 1
    m_Data: {fileID: 1431834304, guid: 1a1ec744dea291544aa0120d9f144e27, type: 3}
  - m_RefCount: 1
    m_Data: {fileID: 514587661, guid: 1a1ec744dea291544aa0120d9f144e27, type: 3}
  - m_RefCount: 1
    m_Data: {fileID: 654245700, guid: 1a1ec744dea291544aa0120d9f144e27, type: 3}
  - m_RefCount: 1
    m_Data: {fileID: 630027898, guid: 1a1ec744dea291544aa0120d9f144e27, type: 3}
  - m_RefCount: 1
    m_Data: {fileID: -914151613, guid: 1a1ec744dea291544aa0120d9f144e27, type: 3}
  - m_RefCount: 1
    m_Data: {fileID: 108351871, guid: 1a1ec744dea291544aa0120d9f144e27, type: 3}
  - m_RefCount: 1
    m_Data: {fileID: -1637220033, guid: 1a1ec744dea291544aa0120d9f144e27, type: 3}
  - m_RefCount: 1
    m_Data: {fileID: 1773978744, guid: 1a1ec744dea291544aa0120d9f144e27, type: 3}
  - m_RefCount: 1
    m_Data: {fileID: 322091362, guid: 1a1ec744dea291544aa0120d9f144e27, type: 3}
  - m_RefCount: 1
    m_Data: {fileID: 1293919659, guid: 1a1ec744dea291544aa0120d9f144e27, type: 3}
  - m_RefCount: 1
    m_Data: {fileID: 998008463, guid: 1a1ec744dea291544aa0120d9f144e27, type: 3}
  - m_RefCount: 1
    m_Data: {fileID: -1577640771, guid: 1a1ec744dea291544aa0120d9f144e27, type: 3}
  - m_RefCount: 1
    m_Data: {fileID: -502374791, guid: 1a1ec744dea291544aa0120d9f144e27, type: 3}
  - m_RefCount: 1
    m_Data: {fileID: 1881678467, guid: 1a1ec744dea291544aa0120d9f144e27, type: 3}
  - m_RefCount: 1
    m_Data: {fileID: -1810135342, guid: 1a1ec744dea291544aa0120d9f144e27, type: 3}
  - m_RefCount: 1
    m_Data: {fileID: -691894621, guid: 1a1ec744dea291544aa0120d9f144e27, type: 3}
  - m_RefCount: 1
    m_Data: {fileID: 1905163312, guid: 1a1ec744dea291544aa0120d9f144e27, type: 3}
  - m_RefCount: 1
    m_Data: {fileID: 1806411426, guid: 1a1ec744dea291544aa0120d9f144e27, type: 3}
  - m_RefCount: 1
    m_Data: {fileID: -461826059, guid: 1a1ec744dea291544aa0120d9f144e27, type: 3}
  - m_RefCount: 1
    m_Data: {fileID: 1218680920, guid: 1a1ec744dea291544aa0120d9f144e27, type: 3}
  - m_RefCount: 1
    m_Data: {fileID: -967449027, guid: 1a1ec744dea291544aa0120d9f144e27, type: 3}
  - m_RefCount: 1
    m_Data: {fileID: 591570328, guid: 1a1ec744dea291544aa0120d9f144e27, type: 3}
  - m_RefCount: 1
    m_Data: {fileID: 2145838383, guid: 1a1ec744dea291544aa0120d9f144e27, type: 3}
  - m_RefCount: 1
    m_Data: {fileID: 609850150, guid: 1a1ec744dea291544aa0120d9f144e27, type: 3}
  - m_RefCount: 1
    m_Data: {fileID: 55008805, guid: 1a1ec744dea291544aa0120d9f144e27, type: 3}
  - m_RefCount: 1
    m_Data: {fileID: 1217227868, guid: 1a1ec744dea291544aa0120d9f144e27, type: 3}
  - m_RefCount: 1
    m_Data: {fileID: 1672655445, guid: 1a1ec744dea291544aa0120d9f144e27, type: 3}
  - m_RefCount: 1
    m_Data: {fileID: 2008147450, guid: 1a1ec744dea291544aa0120d9f144e27, type: 3}
  - m_RefCount: 1
    m_Data: {fileID: 389899809, guid: 1a1ec744dea291544aa0120d9f144e27, type: 3}
  - m_RefCount: 1
    m_Data: {fileID: 994233377, guid: 1a1ec744dea291544aa0120d9f144e27, type: 3}
  - m_RefCount: 1
    m_Data: {fileID: -687026335, guid: 1a1ec744dea291544aa0120d9f144e27, type: 3}
  - m_RefCount: 1
    m_Data: {fileID: -2013839312, guid: 1a1ec744dea291544aa0120d9f144e27, type: 3}
  - m_RefCount: 1
    m_Data: {fileID: 1298191004, guid: 1a1ec744dea291544aa0120d9f144e27, type: 3}
  - m_RefCount: 1
    m_Data: {fileID: 1649400066, guid: 1a1ec744dea291544aa0120d9f144e27, type: 3}
  - m_RefCount: 1
    m_Data: {fileID: -1242737498, guid: 1a1ec744dea291544aa0120d9f144e27, type: 3}
  - m_RefCount: 1
    m_Data: {fileID: -1316060340, guid: 1a1ec744dea291544aa0120d9f144e27, type: 3}
  - m_RefCount: 1
    m_Data: {fileID: -1172546602, guid: 1a1ec744dea291544aa0120d9f144e27, type: 3}
  - m_RefCount: 1
    m_Data: {fileID: -467504410, guid: 1a1ec744dea291544aa0120d9f144e27, type: 3}
  - m_RefCount: 1
    m_Data: {fileID: -956075667, guid: 1a1ec744dea291544aa0120d9f144e27, type: 3}
  - m_RefCount: 1
    m_Data: {fileID: 1430515350, guid: 1a1ec744dea291544aa0120d9f144e27, type: 3}
  - m_RefCount: 1
    m_Data: {fileID: -460519072, guid: 1a1ec744dea291544aa0120d9f144e27, type: 3}
  - m_RefCount: 1
    m_Data: {fileID: 983729897, guid: 1a1ec744dea291544aa0120d9f144e27, type: 3}
  - m_RefCount: 1
    m_Data: {fileID: -911817084, guid: 1a1ec744dea291544aa0120d9f144e27, type: 3}
  - m_RefCount: 1
    m_Data: {fileID: 492887462, guid: 1a1ec744dea291544aa0120d9f144e27, type: 3}
  - m_RefCount: 1
    m_Data: {fileID: -2117670758, guid: 1a1ec744dea291544aa0120d9f144e27, type: 3}
  - m_RefCount: 1
    m_Data: {fileID: 140976674, guid: 1a1ec744dea291544aa0120d9f144e27, type: 3}
  - m_RefCount: 1
    m_Data: {fileID: -563519138, guid: 1a1ec744dea291544aa0120d9f144e27, type: 3}
  - m_RefCount: 1
    m_Data: {fileID: 1675388295, guid: 1a1ec744dea291544aa0120d9f144e27, type: 3}
  - m_RefCount: 1
    m_Data: {fileID: -810753239, guid: 1a1ec744dea291544aa0120d9f144e27, type: 3}
  - m_RefCount: 1
    m_Data: {fileID: -1941765519, guid: 1a1ec744dea291544aa0120d9f144e27, type: 3}
  - m_RefCount: 1
    m_Data: {fileID: -1651185113, guid: 1a1ec744dea291544aa0120d9f144e27, type: 3}
  - m_RefCount: 1
    m_Data: {fileID: -13162009, guid: 1a1ec744dea291544aa0120d9f144e27, type: 3}
  - m_RefCount: 1
    m_Data: {fileID: 1401144364, guid: 1a1ec744dea291544aa0120d9f144e27, type: 3}
  - m_RefCount: 1
    m_Data: {fileID: 1627152632, guid: 1a1ec744dea291544aa0120d9f144e27, type: 3}
  - m_RefCount: 1
    m_Data: {fileID: -1664174663, guid: 1a1ec744dea291544aa0120d9f144e27, type: 3}
  - m_RefCount: 1
    m_Data: {fileID: -1135085099, guid: 1a1ec744dea291544aa0120d9f144e27, type: 3}
  - m_RefCount: 1
    m_Data: {fileID: 403493630, guid: 1a1ec744dea291544aa0120d9f144e27, type: 3}
  - m_RefCount: 1
    m_Data: {fileID: 1579709952, guid: 1a1ec744dea291544aa0120d9f144e27, type: 3}
  - m_RefCount: 1
    m_Data: {fileID: 1444177121, guid: 1a1ec744dea291544aa0120d9f144e27, type: 3}
  - m_RefCount: 1
    m_Data: {fileID: -1753505296, guid: 1a1ec744dea291544aa0120d9f144e27, type: 3}
  - m_RefCount: 1
    m_Data: {fileID: 183676870, guid: 1a1ec744dea291544aa0120d9f144e27, type: 3}
  - m_RefCount: 1
    m_Data: {fileID: -1931201464, guid: 1a1ec744dea291544aa0120d9f144e27, type: 3}
  - m_RefCount: 1
    m_Data: {fileID: 577561975, guid: 1a1ec744dea291544aa0120d9f144e27, type: 3}
  - m_RefCount: 1
    m_Data: {fileID: 1615082343, guid: 1a1ec744dea291544aa0120d9f144e27, type: 3}
  - m_RefCount: 1
    m_Data: {fileID: 838139307, guid: 1a1ec744dea291544aa0120d9f144e27, type: 3}
  - m_RefCount: 1
    m_Data: {fileID: -128524724, guid: 1a1ec744dea291544aa0120d9f144e27, type: 3}
  - m_RefCount: 1
    m_Data: {fileID: -588330167, guid: 1a1ec744dea291544aa0120d9f144e27, type: 3}
  - m_RefCount: 1
    m_Data: {fileID: 1900002711, guid: 1a1ec744dea291544aa0120d9f144e27, type: 3}
  - m_RefCount: 1
    m_Data: {fileID: 2001870539, guid: 1a1ec744dea291544aa0120d9f144e27, type: 3}
  - m_RefCount: 1
    m_Data: {fileID: -1366833547, guid: 1a1ec744dea291544aa0120d9f144e27, type: 3}
  - m_RefCount: 1
    m_Data: {fileID: 965290096, guid: 1a1ec744dea291544aa0120d9f144e27, type: 3}
  - m_RefCount: 1
    m_Data: {fileID: -1355233037, guid: 1a1ec744dea291544aa0120d9f144e27, type: 3}
  - m_RefCount: 1
    m_Data: {fileID: -1207818461, guid: 1a1ec744dea291544aa0120d9f144e27, type: 3}
  - m_RefCount: 1
    m_Data: {fileID: 1271087502, guid: 1a1ec744dea291544aa0120d9f144e27, type: 3}
  - m_RefCount: 1
    m_Data: {fileID: 374180510, guid: 1a1ec744dea291544aa0120d9f144e27, type: 3}
  - m_RefCount: 1
    m_Data: {fileID: 1405761481, guid: 1a1ec744dea291544aa0120d9f144e27, type: 3}
  - m_RefCount: 1
    m_Data: {fileID: -899922698, guid: 1a1ec744dea291544aa0120d9f144e27, type: 3}
  - m_RefCount: 1
    m_Data: {fileID: 4327511, guid: 1a1ec744dea291544aa0120d9f144e27, type: 3}
  - m_RefCount: 1
    m_Data: {fileID: -638386696, guid: 1a1ec744dea291544aa0120d9f144e27, type: 3}
  - m_RefCount: 1
    m_Data: {fileID: 1615601931, guid: 1a1ec744dea291544aa0120d9f144e27, type: 3}
  - m_RefCount: 1
    m_Data: {fileID: 1565275456, guid: 1a1ec744dea291544aa0120d9f144e27, type: 3}
  - m_RefCount: 1
    m_Data: {fileID: 2006088852, guid: 1a1ec744dea291544aa0120d9f144e27, type: 3}
  - m_RefCount: 1
    m_Data: {fileID: -1693604929, guid: 1a1ec744dea291544aa0120d9f144e27, type: 3}
  - m_RefCount: 1
    m_Data: {fileID: 122198742, guid: 1a1ec744dea291544aa0120d9f144e27, type: 3}
  - m_RefCount: 1
    m_Data: {fileID: -523840895, guid: 1a1ec744dea291544aa0120d9f144e27, type: 3}
  - m_RefCount: 1
    m_Data: {fileID: 1821464116, guid: 1a1ec744dea291544aa0120d9f144e27, type: 3}
  - m_RefCount: 1
    m_Data: {fileID: -1877212803, guid: 1a1ec744dea291544aa0120d9f144e27, type: 3}
  - m_RefCount: 1
    m_Data: {fileID: -601716938, guid: 1a1ec744dea291544aa0120d9f144e27, type: 3}
  - m_RefCount: 1
    m_Data: {fileID: 1350577322, guid: 1a1ec744dea291544aa0120d9f144e27, type: 3}
  - m_RefCount: 1
    m_Data: {fileID: -814678909, guid: 1a1ec744dea291544aa0120d9f144e27, type: 3}
  - m_RefCount: 1
    m_Data: {fileID: -1891436610, guid: 1a1ec744dea291544aa0120d9f144e27, type: 3}
  - m_RefCount: 1
    m_Data: {fileID: 1112205763, guid: 1a1ec744dea291544aa0120d9f144e27, type: 3}
  - m_RefCount: 1
    m_Data: {fileID: 193935344, guid: 1a1ec744dea291544aa0120d9f144e27, type: 3}
  - m_RefCount: 1
    m_Data: {fileID: 883565006, guid: 1a1ec744dea291544aa0120d9f144e27, type: 3}
  m_TileMatrixArray:
  - m_RefCount: 108
    m_Data:
      e00: 1
      e01: 0
      e02: 0
      e03: 0
      e10: 0
      e11: 1
      e12: 0
      e13: 0
      e20: 0
      e21: 0
      e22: 1
      e23: 0
      e30: 0
      e31: 0
      e32: 0
      e33: 1
  m_TileColorArray:
  - m_RefCount: 108
    m_Data: {r: 1, g: 1, b: 1, a: 1}
  m_TileObjectToInstantiateArray: []
  m_AnimationFrameRate: 1
  m_Color: {r: 1, g: 1, b: 1, a: 1}
  m_Origin: {x: -2, y: -15, z: 0}
  m_Size: {x: 6, y: 18, z: 1}
  m_TileAnchor: {x: 0.5, y: 0.5, z: 0}
  m_TileOrientation: 0
  m_TileOrientationMatrix:
    e00: 1
    e01: 0
    e02: 0
    e03: 0
    e10: 0
    e11: 1
    e12: 0
    e13: 0
    e20: 0
    e21: 0
    e22: 1
    e23: 0
    e30: 0
    e31: 0
    e32: 0
    e33: 1
--- !u!483693784 &7937181573355036700
TilemapRenderer:
  m_ObjectHideFlags: 0
  m_CorrespondingSourceObject: {fileID: 0}
  m_PrefabInstance: {fileID: 0}
  m_PrefabAsset: {fileID: 0}
  m_GameObject: {fileID: 8799434412732546014}
  m_Enabled: 1
  m_CastShadows: 0
  m_ReceiveShadows: 0
  m_DynamicOccludee: 0
  m_StaticShadowCaster: 0
  m_MotionVectors: 1
  m_LightProbeUsage: 0
  m_ReflectionProbeUsage: 0
  m_RayTracingMode: 0
  m_RayTraceProcedural: 0
  m_RenderingLayerMask: 1
  m_RendererPriority: 0
  m_Materials:
  - {fileID: 10754, guid: 0000000000000000f000000000000000, type: 0}
  m_StaticBatchInfo:
    firstSubMesh: 0
    subMeshCount: 0
  m_StaticBatchRoot: {fileID: 0}
  m_ProbeAnchor: {fileID: 0}
  m_LightProbeVolumeOverride: {fileID: 0}
  m_ScaleInLightmap: 1
  m_ReceiveGI: 1
  m_PreserveUVs: 0
  m_IgnoreNormalsForChartDetection: 0
  m_ImportantGI: 0
  m_StitchLightmapSeams: 1
  m_SelectedEditorRenderState: 0
  m_MinimumChartSize: 4
  m_AutoUVMaxDistance: 0.5
  m_AutoUVMaxAngle: 89
  m_LightmapParameters: {fileID: 0}
  m_SortingLayerID: 0
  m_SortingLayer: 0
  m_SortingOrder: 0
  m_ChunkSize: {x: 32, y: 32, z: 32}
  m_ChunkCullingBounds: {x: 0, y: 0, z: 0}
  m_MaxChunkCount: 16
  m_MaxFrameAge: 16
  m_SortOrder: 0
  m_Mode: 0
  m_DetectChunkCullingBounds: 0
  m_MaskInteraction: 0
--- !u!114 &7684521918953225888
MonoBehaviour:
  m_ObjectHideFlags: 0
  m_CorrespondingSourceObject: {fileID: 0}
  m_PrefabInstance: {fileID: 0}
  m_PrefabAsset: {fileID: 0}
  m_GameObject: {fileID: 0}
  m_Enabled: 1
  m_EditorHideFlags: 0
  m_Script: {fileID: 12395, guid: 0000000000000000e000000000000000, type: 0}
  m_Name: Palette Settings
  m_EditorClassIdentifier: 
  cellSizing: 0
  m_TransparencySortMode: 0
  m_TransparencySortAxis: {x: 0, y: 0, z: 1}
